<svg width="90" height="90" viewBox="0 0 90 90" fill="none" xmlns="http://www.w3.org/2000/svg">
<path d="M45.5 87C68.9721 87 88 67.9721 88 44.5C88 21.0279 68.9721 2 45.5 2C22.0279 2 3 21.0279 3 44.5C3 67.9721 22.0279 87 45.5 87Z" fill="url(#paint0_linear_12_4637)"/>
<path d="M45.6755 71.6755C60.5872 71.6755 72.6755 59.5872 72.6755 44.6755C72.6755 29.7639 60.5872 17.6755 45.6755 17.6755C30.7639 17.6755 18.6755 29.7639 18.6755 44.6755C18.6755 59.5872 30.7639 71.6755 45.6755 71.6755Z" fill="#EDA31F"/>
<path d="M49.0847 54.1132C49.1587 54.1155 49.229 54.146 49.2814 54.1984C49.3337 54.2506 49.3642 54.321 49.3666 54.3949V55.8602C49.3666 55.9349 49.3369 56.0066 49.284 56.0594C49.2311 56.1123 49.1594 56.1419 49.0847 56.1419H41.5661C41.5286 56.1433 41.4914 56.1369 41.4566 56.1232C41.4218 56.1095 41.3902 56.0888 41.3638 56.0623C41.3373 56.0359 41.3166 56.0043 41.3029 55.9695C41.2892 55.9348 41.2827 55.8976 41.2841 55.8602V54.3949C41.2841 54.3203 41.3138 54.2485 41.3666 54.1957C41.4196 54.1429 41.4913 54.1132 41.5661 54.1132H49.0847ZM49.0847 53.174H41.5661C41.4056 53.174 41.2467 53.2055 41.0985 53.2669C40.9503 53.3282 40.8156 53.4182 40.7021 53.5316C40.5887 53.645 40.4987 53.7795 40.4373 53.9277C40.3758 54.0758 40.3442 54.2346 40.3442 54.3949V55.8602C40.3442 56.0205 40.3758 56.1793 40.4373 56.3274C40.4987 56.4756 40.5887 56.6102 40.7021 56.7236C40.8156 56.837 40.9503 56.9269 41.0985 56.9883C41.2467 57.0497 41.4056 57.0812 41.5661 57.0812H49.0847C49.4087 57.0812 49.7194 56.9526 49.9486 56.7236C50.1777 56.4946 50.3064 56.184 50.3064 55.8602V54.3949C50.3016 54.0727 50.1713 53.7649 49.9432 53.5369C49.7151 53.309 49.4072 53.1788 49.0847 53.174Z" fill="#FFD693"/>
<path d="M62.5054 47.7077C62.6632 46.7751 62.6632 45.8226 62.5054 44.89C62.3522 44.5512 62.153 44.2352 61.9134 43.9508C61.3645 42.962 60.7359 42.0196 60.0337 41.133C59.9491 41.0391 59.686 40.8137 59.7518 40.7104C59.8175 40.607 60.2687 40.7761 60.5412 40.8513C61.481 41.1049 63.1633 39.912 63.0694 38.9164C62.919 37.4042 59.5168 38.3622 59.4134 39.7805C58.9717 38.6158 58.5676 37.5451 58.0413 36.4744C57.6197 35.3862 57.0333 34.3694 56.3026 33.4593C55.1748 32.3323 53.1918 32.1632 51.2745 31.966C48.1946 31.6763 45.098 31.6041 42.0079 31.7499C41.068 31.7499 40.1282 31.9003 39.1884 32.0035C37.3087 32.1914 35.5513 32.3886 34.4893 33.4593C34.1232 33.8882 33.8079 34.3578 33.5494 34.8589C32.803 36.1395 32.1739 37.485 31.6698 38.8788C31.6105 39.1762 31.4958 39.4598 31.3315 39.7148C31.1811 38.2495 27.8165 37.4324 27.6755 38.7943C27.5816 39.818 29.1135 41.0673 30.1003 40.8137C30.4762 40.7292 30.7487 40.4192 31.0401 40.6446C30.5872 41.4531 30.0916 42.237 29.5552 42.9927C29.0156 43.5318 28.5849 44.1696 28.2864 44.8712C28.1993 45.3546 28.1803 45.8478 28.23 46.3364C28.3052 47.8111 28.4838 48.4404 28.5684 49.7647C28.5938 50.1241 28.6408 50.4817 28.7094 50.8354C28.7094 51.3614 28.7563 51.8686 28.7939 52.404C28.8315 52.9394 28.8409 53.3432 28.8785 53.9537C28.9255 54.6769 28.8221 56.7714 29.3578 57.0062C29.8874 57.0864 30.4259 57.0864 30.9555 57.0062C31.498 57.0821 32.0483 57.0821 32.5908 57.0062C32.9573 56.856 32.9385 55.9261 32.9761 55.4659V54.9963C33.6528 55.109 34.4047 55.1278 35.1847 55.1841C36.9798 55.3156 38.944 55.4284 40.9364 55.4659C41.0305 55.0996 40.7579 54.104 41.0774 53.8974C41.4195 53.8201 41.7722 53.8011 42.1206 53.841H47.5905C48.1637 53.841 49.4701 53.7001 49.7332 53.9255C49.9964 54.151 49.7332 55.0714 49.846 55.4659C51.8196 55.4189 53.7557 55.325 55.5977 55.1841C56.3872 55.1278 57.1203 55.109 57.7875 54.9963C57.7875 55.8322 57.7875 56.7245 58.2951 57.0062C58.8178 57.0352 59.3418 57.0352 59.8645 57.0062C60.388 57.083 60.92 57.083 61.4434 57.0062C61.8006 56.8748 61.8382 55.9825 61.857 55.4941C61.9416 53.9067 62.0355 52.2443 62.1107 50.7979L62.5054 47.7077ZM34.9592 48.8161C33.5494 48.8161 30.7299 47.332 30.7299 45.9326C30.7299 44.5331 33.5494 44.5706 34.9592 44.5706C36.3689 44.5706 38.3426 45.369 38.3426 46.7779C38.3426 48.1868 36.3595 48.8161 34.9592 48.8161ZM47.4871 48.7409C47.4883 48.7639 47.4849 48.7869 47.4769 48.8085C47.469 48.8301 47.4568 48.8499 47.441 48.8666C47.4251 48.8833 47.406 48.8966 47.3849 48.9056C47.3637 48.9148 47.3409 48.9194 47.3179 48.9194H43.2108C43.187 48.9207 43.1632 48.9171 43.1409 48.9086C43.1186 48.9001 43.0984 48.887 43.0815 48.8701C43.0647 48.8533 43.0516 48.8331 43.0431 48.8108C43.0346 48.7885 43.0309 48.7647 43.0323 48.7409V48.6376C43.0322 48.6146 43.0369 48.5918 43.046 48.5706C43.0551 48.5495 43.0684 48.5304 43.0851 48.5146C43.1018 48.4987 43.1216 48.4865 43.1432 48.4786C43.1649 48.4706 43.1878 48.4672 43.2108 48.4685H47.3179C47.3627 48.4685 47.4058 48.4863 47.4375 48.518C47.4692 48.5497 47.4871 48.5927 47.4871 48.6376V48.7409ZM32.4498 40.4192C33.2668 38.0831 34.4022 35.8707 35.8238 33.8445C42.2022 33.2151 48.6272 33.2151 55.0056 33.8445C56.4316 35.8624 57.5555 38.0772 58.342 40.4192C49.7614 40.4943 41.0117 40.4943 32.4405 40.4192H32.4498ZM52.2708 46.7497C52.2708 45.3409 54.2538 44.5425 55.6635 44.5425C57.0732 44.5425 59.8928 44.5425 59.8928 45.9044C59.8928 47.2663 57.0732 48.7879 55.6635 48.7879C54.2538 48.7879 52.2614 48.1492 52.2614 46.7497H52.2708Z" fill="#FFD693"/>
<path d="M78.7435 38.1963L77.736 38.6338L77.5608 37.89L82.5983 34.7397L82.8173 35.7898L78.7435 38.1963ZM83.4743 38.5463L83.6934 39.5964L77.7798 38.8526L77.6046 38.1088L78.6997 38.065L83.4743 38.5463Z" fill="#F7DFB5"/>
<path d="M82.0288 42.7029C82.1602 42.8341 82.2478 42.9654 82.3792 43.0091C82.4668 43.0529 82.5982 43.0966 82.7734 43.0966C82.9049 43.0966 83.0363 43.0091 83.1239 42.9216C83.2115 42.8341 83.2553 42.6591 83.2553 42.4841C83.2553 42.3091 83.1677 42.1341 83.0363 42.0465C82.9049 41.959 82.7296 41.9153 82.5544 41.9153C82.3792 41.9153 82.204 42.0028 82.0288 42.1341C81.8536 42.2653 81.6345 42.4403 81.4593 42.6591L78.5245 45.5031L78.4368 44.4092L80.8023 42.0903C81.1089 41.784 81.4155 41.5215 81.6783 41.3465C81.9412 41.1715 82.204 41.0402 82.4668 41.0402C82.7734 41.0402 83.0363 41.084 83.2553 41.1715C83.4743 41.259 83.6495 41.434 83.7809 41.6528C83.9123 41.8715 84 42.1341 84 42.4403C84 42.7029 83.9562 42.9654 83.8685 43.1841C83.7809 43.4029 83.6057 43.5779 83.4305 43.7092C83.2553 43.8404 83.0363 43.8842 82.8172 43.928C82.642 43.928 82.4668 43.928 82.3354 43.8842C82.204 43.8404 82.0288 43.7529 81.8974 43.6654C81.7659 43.5779 81.6345 43.4467 81.5031 43.3154L80.5832 42.1778C80.4518 42.0465 80.3642 41.959 80.2766 41.9153C80.189 41.8715 80.1014 41.8278 80.0138 41.8278C79.9262 41.8278 79.8386 41.8278 79.7948 41.8278C79.6196 41.8278 79.4881 41.8715 79.3567 41.959C79.2253 42.0465 79.1377 42.1341 79.0501 42.2653C78.9625 42.3966 78.9625 42.5716 78.9625 42.7466C78.9625 42.9654 79.0501 43.1404 79.1377 43.3592C79.2253 43.5779 79.4005 43.7092 79.5757 43.8842C79.751 44.0155 79.97 44.1467 80.2328 44.2342C80.4956 44.3217 80.7585 44.3217 81.0651 44.3217L81.1089 45.1531C80.7147 45.1968 80.3204 45.1531 79.97 45.0655C79.6196 44.978 79.3129 44.803 79.0501 44.5405C79.0501 44.5405 79.0063 44.4967 78.9625 44.4967C78.9187 44.4967 78.9187 44.453 78.8749 44.453C78.6559 44.2342 78.4806 44.0155 78.393 43.7529C78.3054 43.4904 78.2178 43.1841 78.174 42.8779C78.1302 42.4841 78.174 42.1778 78.3054 41.9153C78.4368 41.6528 78.6121 41.3902 78.8311 41.259C79.0501 41.084 79.3129 40.9965 79.6196 40.9965C79.8386 40.9965 80.0576 40.9965 80.2328 41.084C80.408 41.1715 80.5832 41.3027 80.7585 41.434C80.9337 41.609 81.0651 41.784 81.2403 41.959L82.0288 42.7029Z" fill="#F7DFB5"/>
<path d="M79.6633 49.0472C79.7947 49.0472 79.9261 49.0472 80.0575 49.0035C80.1889 48.9597 80.2766 48.8285 80.3642 48.6972C80.4518 48.5222 80.5832 48.3034 80.7146 47.9971C80.8022 47.7346 80.9336 47.5159 81.065 47.2971C81.1964 47.0783 81.3279 46.9033 81.4593 46.7283C81.5907 46.5533 81.7659 46.4658 81.9411 46.3783C82.1163 46.2908 82.3353 46.247 82.5544 46.2908C82.861 46.3345 83.1238 46.422 83.3428 46.597C83.5619 46.772 83.7371 47.0346 83.8247 47.3408C83.9123 47.6471 83.9561 47.9971 83.9561 48.3909C83.9123 48.8285 83.8247 49.1785 83.6495 49.441C83.4742 49.7473 83.2552 49.9661 82.9924 50.0973C82.7296 50.2286 82.423 50.3161 82.1163 50.2723L82.2039 49.266C82.3791 49.266 82.5544 49.266 82.6858 49.1785C82.8172 49.1347 82.9486 49.0035 83.0362 48.8722C83.1238 48.741 83.1676 48.5222 83.2114 48.3034C83.2114 48.0847 83.2114 47.9096 83.1676 47.7346C83.1238 47.5596 83.0362 47.4721 82.9048 47.3846C82.8172 47.2971 82.6858 47.2533 82.5106 47.2533C82.3792 47.2533 82.2477 47.2971 82.1601 47.3408C82.0287 47.4283 81.9411 47.5596 81.8535 47.7346C81.7659 47.9096 81.6345 48.1284 81.5469 48.3909C81.3717 48.7847 81.2402 49.1347 81.0212 49.3973C80.846 49.6598 80.627 49.8348 80.408 49.9661C80.1889 50.0973 79.9261 50.1411 79.6195 50.0973C79.3129 50.0536 79.05 49.9661 78.831 49.791C78.612 49.616 78.4368 49.3535 78.3492 49.0472C78.2616 48.741 78.2178 48.3909 78.2616 47.9971C78.2616 47.7346 78.3492 47.4721 78.4368 47.2096C78.5244 46.9471 78.6558 46.7283 78.831 46.5095C79.0062 46.2908 79.1815 46.1595 79.4443 46.0282C79.6633 45.9407 79.9261 45.897 80.2327 45.897L80.1451 46.9033C79.9699 46.9033 79.7947 46.9033 79.6633 46.9471C79.5319 46.9908 79.4443 47.0783 79.3129 47.1658C79.1815 47.2533 79.1377 47.3846 79.0938 47.5159C79.05 47.6471 79.0062 47.8221 79.0062 47.9971C79.0062 48.2159 79.0062 48.3909 79.05 48.5659C79.0938 48.6972 79.1815 48.8285 79.2691 48.916C79.3567 49.0035 79.5319 49.0472 79.6633 49.0472Z" fill="#F7DFB5"/>
<path d="M76.9913 54.8226L77.6045 55.5227L77.1665 56.704C77.0789 57.0103 77.0351 57.2728 77.1227 57.4479C77.2103 57.6666 77.3855 57.7979 77.6045 57.8854C77.7797 57.9291 77.955 57.9729 78.0864 57.9729C78.2178 57.9729 78.3492 57.8854 78.4806 57.7979C78.612 57.7104 78.6996 57.5354 78.7434 57.3603L79.1377 56.354L79.7947 56.6165L79.3129 57.9291L78.9624 58.0604C78.831 58.3667 78.6996 58.5854 78.5244 58.7167C78.3492 58.848 78.1302 58.9355 77.9112 58.9792C77.6921 59.023 77.4731 58.9792 77.2541 58.8917C76.7284 58.7167 76.4218 58.4104 76.2904 57.9729C76.159 57.5354 76.2028 57.0541 76.378 56.4853L76.9913 54.8226ZM79.2691 56.004L79.9699 56.2665L79.5319 57.4479C79.4443 57.7541 79.4005 57.9729 79.4881 58.1917C79.5757 58.4104 79.7071 58.5417 79.9261 58.6292C80.189 58.7167 80.408 58.7167 80.5832 58.6292C80.7584 58.5417 80.8898 58.3229 81.0212 57.9729L81.3279 57.0978L76.8161 55.4352L77.1665 54.5164L82.423 56.4415L81.7659 58.2354C81.5469 58.8042 81.2841 59.2417 80.9336 59.4605C80.5832 59.723 80.1452 59.723 79.6633 59.548C79.4443 59.4605 79.2691 59.3293 79.1377 59.1542C79.0062 58.9792 78.9186 58.7605 78.8748 58.5417C78.831 58.2792 78.8748 58.0166 78.9624 57.7104L78.831 57.3603L79.2691 56.004Z" fill="#F7DFB5"/>
<path d="M76.6847 61.867L76.2029 62.7858L73.3994 62.7421L73.3556 62.6983L73.8812 61.7795L76.6847 61.867ZM79.3567 63.4421C79.1377 63.8359 78.9187 64.0984 78.6559 64.3172C78.3931 64.536 78.1302 64.6235 77.8236 64.6672C77.517 64.6672 77.2103 64.6235 76.9037 64.4484C76.6409 64.3172 76.4657 64.1422 76.3343 63.9672C76.2029 63.7921 76.1152 63.5734 76.0714 63.3109C76.0276 63.0921 76.0276 62.8296 76.1152 62.567V62.217L76.9913 60.6419L77.6922 61.0357L77.0789 62.1733C76.9475 62.392 76.9037 62.567 76.9037 62.7421C76.9037 62.9171 76.9475 63.0483 77.0351 63.1796C77.1227 63.3109 77.2541 63.4421 77.3856 63.4859C77.6484 63.6171 77.8674 63.6609 78.0864 63.6171C78.3054 63.5734 78.5245 63.3546 78.6997 63.0483L79.1815 62.1733L74.9763 59.8543L75.4582 58.9792L80.3642 61.692L79.3567 63.4421Z" fill="#F7DFB5"/>
<path d="M72.3919 68.3425C71.9538 67.9925 71.6034 67.5987 71.4282 67.2049C71.2092 66.8111 71.1216 66.3736 71.1654 65.9798C71.2092 65.586 71.3844 65.1923 71.6472 64.7985C71.91 64.4485 72.2605 64.1859 72.6547 64.0547C73.0489 63.9234 73.4432 63.8797 73.925 63.9672C74.4069 64.0547 74.8011 64.2734 75.283 64.6235L75.502 64.7985C75.94 65.1485 76.2904 65.5423 76.4657 65.9361C76.6409 66.3299 76.7285 66.7674 76.7285 67.1612C76.6847 67.555 76.5095 67.9487 76.2466 68.2988C75.94 68.6488 75.6334 68.9113 75.2391 69.0863C74.8449 69.2176 74.4507 69.2613 74.0126 69.1738C73.5746 69.0863 73.1366 68.8676 72.6547 68.5175L72.3919 68.3425ZM73.2242 67.7737C73.5308 68.0362 73.8374 68.2113 74.144 68.2988C74.4507 68.3863 74.7135 68.3863 74.9325 68.3425C75.1515 68.255 75.3706 68.1237 75.5458 67.905C75.721 67.6862 75.8086 67.4674 75.8086 67.2049C75.8086 66.9424 75.721 66.7236 75.5896 66.4611C75.4144 66.1986 75.1953 65.9361 74.8449 65.7173L74.6259 65.5423C74.3193 65.2798 73.9688 65.1048 73.706 65.0172C73.3994 64.9297 73.1366 64.9297 72.9175 64.9735C72.6985 65.061 72.4795 65.1923 72.3043 65.411C72.1291 65.6298 72.0415 65.8923 72.0415 66.1111C72.0415 66.3299 72.1291 66.5924 72.2605 66.8549C72.4357 67.1174 72.6547 67.3799 73.0051 67.5987L73.2242 67.7737Z" fill="#F7DFB5"/>
<path d="M68.0991 68.8238L68.8 68.1238L72.6547 72.1929L71.9539 72.8929L68.0991 68.8238ZM70.1579 73.5055L73.3994 70.4427L73.9689 71.0115L70.7274 74.0743L70.1579 73.5055Z" fill="#F7DFB5"/>
<path d="M62.6674 72.9803L63.4996 72.4115L66.6973 77.0057L65.8651 77.5745L62.6674 72.9803ZM64.7261 74.5992L67.1354 72.9366L67.5734 73.5929L65.1642 75.2555L64.7261 74.5992ZM65.5146 71.0114L66.3469 70.4426L69.5446 75.0368L68.7123 75.6056L65.5146 71.0114Z" fill="#F7DFB5"/>
<path d="M58.4183 75.0806L61.0904 73.8117L61.4408 74.5118L58.7688 75.7806L58.4183 75.0806ZM59.8639 77.137L62.1855 75.9994L62.5359 76.6994L60.2143 77.837L59.8639 77.137ZM60.5647 79.3684L63.193 78.0996L63.5434 78.7996L60.9152 80.0685L60.5647 79.3684ZM60.8714 73.8992L61.7474 73.4617L64.2005 78.4933L63.3244 78.9309L60.8714 73.8992Z" fill="#F7DFB5"/>
<path d="M56.71 78.2745L55.7025 78.5808L53.6875 76.6119V76.5682L54.695 76.2619L56.71 78.2745ZM57.5423 81.2498C57.148 81.3811 56.7538 81.4248 56.4472 81.3811C56.1405 81.3373 55.8339 81.2498 55.6149 81.031C55.3959 80.856 55.2206 80.5497 55.0892 80.1997C55.0016 79.9372 54.9578 79.6747 55.0016 79.4559C55.0454 79.2371 55.133 79.0184 55.2644 78.7996C55.3959 78.5808 55.5711 78.4496 55.7901 78.2745L56.0091 78.0558L57.7175 77.5307L57.9803 78.2745L56.71 78.6683C56.491 78.7558 56.3157 78.8433 56.1843 78.9746C56.0529 79.1059 55.9653 79.2371 55.9653 79.3684C55.9653 79.4996 55.9653 79.6747 56.0091 79.8497C56.0967 80.1122 56.2281 80.331 56.4472 80.4185C56.6662 80.506 56.929 80.5497 57.2794 80.4185L58.2431 80.1122L56.7976 75.5181L57.7613 75.2118L59.4258 80.5497L57.5423 81.2498Z" fill="#F7DFB5"/>
<path d="M50.4899 78.5808C50.5337 78.7121 50.5775 78.8433 50.6651 78.9309C50.7527 79.0184 50.8841 79.1059 51.0593 79.1496C51.2345 79.1934 51.4974 79.2809 51.8478 79.3246C52.1106 79.3684 52.3734 79.4121 52.6363 79.4997C52.8553 79.5872 53.0743 79.6309 53.2933 79.7622C53.5123 79.8934 53.6438 79.9809 53.7314 80.156C53.8628 80.331 53.9504 80.506 53.9504 80.7248C53.9942 81.031 53.9504 81.2935 53.819 81.5561C53.6876 81.8186 53.4685 82.0374 53.2057 82.2124C52.9429 82.3874 52.5925 82.5186 52.1982 82.5624C51.804 82.6499 51.4097 82.6062 51.1031 82.5187C50.7965 82.4311 50.5337 82.2561 50.3146 82.0374C50.0956 81.8186 50.008 81.5561 49.9204 81.206L50.8841 81.031C50.9279 81.206 50.9717 81.3373 51.0593 81.4686C51.1469 81.5998 51.2783 81.6873 51.4536 81.7311C51.6288 81.7748 51.804 81.7748 52.0668 81.7748C52.2858 81.7311 52.461 81.6873 52.5925 81.5998C52.7239 81.5123 52.8115 81.4248 52.8553 81.2936C52.8991 81.1623 52.9429 81.031 52.8991 80.8998C52.8991 80.7685 52.8115 80.6372 52.7239 80.5497C52.6363 80.4622 52.461 80.3747 52.2858 80.331C52.1106 80.2872 51.8478 80.2435 51.585 80.1997C51.1469 80.156 50.7965 80.0684 50.4899 79.9372C50.1832 79.8059 49.9642 79.6747 49.789 79.4559C49.6138 79.2809 49.5262 79.0184 49.4824 78.7121C49.4386 78.4058 49.4824 78.0995 49.6138 77.8808C49.7452 77.662 49.9204 77.3995 50.227 77.2682C50.4899 77.0932 50.8403 76.9619 51.2345 76.9182C51.4974 76.8744 51.7602 76.8744 52.023 76.9182C52.2858 76.9619 52.5487 77.0057 52.7677 77.137C52.9867 77.2682 53.2057 77.3995 53.3371 77.6182C53.5123 77.837 53.5999 78.0558 53.6438 78.3621L52.6801 78.5371C52.6363 78.3621 52.5925 78.2308 52.5048 78.0995C52.4172 77.9683 52.3296 77.8808 52.1982 77.837C52.0668 77.7933 51.9354 77.7495 51.804 77.7058C51.6726 77.7058 51.4974 77.7058 51.3221 77.7058C51.1031 77.7495 50.9279 77.7933 50.7965 77.8808C50.6651 77.9683 50.5775 78.0558 50.4899 78.187C50.4899 78.3183 50.4461 78.4496 50.4899 78.5808Z" fill="#F7DFB5"/>
<path d="M42.2547 77.9245C42.3423 77.837 42.4737 77.7058 42.6489 77.6183C42.8242 77.487 43.0432 77.3995 43.3498 77.312C43.6126 77.2245 43.9631 77.2245 44.4011 77.2245C44.8829 77.2682 45.2772 77.3557 45.6276 77.6183C45.978 77.8808 46.2409 78.1871 46.4161 78.5809C46.5913 78.9746 46.6789 79.4997 46.6351 80.0685V80.4623C46.5913 81.031 46.5037 81.5123 46.2847 81.9061C46.0657 82.2999 45.8028 82.6062 45.4524 82.7812C45.102 82.9562 44.6639 83.0437 44.1821 83.0437C43.7002 83 43.3498 82.9125 43.0432 82.7374C42.7365 82.5624 42.5175 82.3437 42.3861 82.0811C42.2547 81.8186 42.1671 81.4686 42.1233 81.1186L43.087 81.1623C43.087 81.3373 43.1746 81.5123 43.2184 81.6874C43.2622 81.8624 43.3936 81.9499 43.5688 82.0811C43.744 82.1686 43.9193 82.2124 44.1821 82.2562C44.4887 82.2562 44.7077 82.2124 44.9268 82.0811C45.1458 81.9499 45.2772 81.7311 45.4086 81.4686C45.54 81.2061 45.5838 80.856 45.6276 80.4623V80.0685C45.6276 79.6747 45.6276 79.3247 45.4962 79.0184C45.4086 78.7121 45.2334 78.4933 45.0582 78.3621C44.8391 78.1871 44.6201 78.0996 44.3135 78.0996C44.0945 78.0996 43.9193 78.0996 43.7878 78.1433C43.6564 78.1871 43.525 78.2308 43.4374 78.2746C43.3498 78.3183 43.306 78.3621 43.2622 78.4058L43.2184 79.4997L44.3573 79.5434L44.3135 80.2872L42.1671 80.156L42.2547 77.9245Z" fill="#F7DFB5"/>
<path d="M36.4288 78.7121C36.5602 78.1433 36.7354 77.7057 37.0421 77.3557C37.3487 77.0057 37.6553 76.7432 38.0495 76.6119C38.4438 76.4806 38.838 76.4369 39.3199 76.5681C39.7579 76.6557 40.1521 76.8744 40.415 77.1369C40.7216 77.4432 40.8968 77.7932 41.0282 78.2308C41.1158 78.6683 41.1158 79.1496 40.9844 79.7184L40.9406 79.9809C40.8092 80.5497 40.634 80.9873 40.3274 81.3373C40.0207 81.6873 39.7141 81.9498 39.3199 82.0811C38.9256 82.2124 38.5314 82.2561 38.0495 82.1249C37.6115 82.0373 37.2173 81.8186 36.9106 81.5561C36.604 81.2935 36.4288 80.8997 36.2974 80.4622C36.2098 80.0247 36.2098 79.5434 36.3412 78.9746L36.4288 78.7121ZM37.3049 79.2371C37.2173 79.6309 37.1735 79.9809 37.2173 80.2872C37.2611 80.5935 37.3487 80.8122 37.5239 81.031C37.6991 81.206 37.9181 81.3373 38.181 81.381C38.4438 81.4248 38.7066 81.4248 38.9256 81.3373C39.1446 81.2498 39.3637 81.0748 39.4951 80.8122C39.6703 80.5497 39.8017 80.2434 39.8893 79.8059L39.9331 79.4996C40.0207 79.1059 40.0645 78.7558 40.0207 78.4496C39.9769 78.1433 39.8893 77.9245 39.7141 77.7057C39.5389 77.487 39.3199 77.3995 39.057 77.3557C38.7942 77.312 38.5314 77.312 38.3124 77.3995C38.0934 77.487 37.8743 77.662 37.7429 77.9245C37.5677 78.187 37.4363 78.4933 37.3487 78.9308L37.3049 79.2371Z" fill="#F7DFB5"/>
<path d="M32.8806 74.5555L35.5088 75.5619L35.2022 76.3057L32.574 75.2994L32.8806 74.5555ZM35.246 75.4744L36.1659 75.8244L34.1509 81.0311L33.231 80.681L35.246 75.4744Z" fill="#F7DFB5"/>
<path d="M31.917 74.0742L31.5228 74.7743L30.4715 74.2055C30.1648 74.0305 29.902 73.943 29.5954 73.9867C29.2888 74.0305 29.0697 74.118 28.8069 74.293C28.5879 74.468 28.3689 74.7305 28.1498 75.0806L28.0184 75.3431C27.8432 75.6931 27.7118 75.9994 27.668 76.3057C27.6242 76.6119 27.668 76.8745 27.7994 77.0932C27.9308 77.312 28.1498 77.5308 28.4127 77.7058L29.5078 78.3183L29.1135 79.0184L28.0184 78.4058C27.5804 78.1433 27.23 77.8371 27.0109 77.487C26.7919 77.0932 26.6605 76.6995 26.7043 76.2619C26.7481 75.8244 26.8357 75.3431 27.0986 74.9056L27.23 74.643C27.4928 74.1618 27.7994 73.8117 28.1937 73.593C28.5879 73.3304 28.9821 73.2429 29.4202 73.2429C29.8582 73.2429 30.2962 73.3742 30.7343 73.593L31.917 74.0742ZM31.4352 73.8117L32.3112 74.293L29.5954 79.1934L28.7193 78.7121L31.4352 73.8117Z" fill="#F7DFB5"/>
<path d="M21.2288 63.7921L21.623 64.3172L16.3227 68.2987L15.9285 67.7737L21.2288 63.7921Z" fill="#F7DFB5"/>
<path d="M9.18262 52.7225L8.9198 51.6724L14.8333 52.3287L15.0086 53.0287L13.9135 53.0725L9.18262 52.7225ZM13.9135 52.985L14.8771 52.5474L15.0524 53.2475L10.0587 56.4853L9.79588 55.4352L13.9135 52.985Z" fill="#F7DFB5"/>
<path d="M10.4968 48.5658C10.3654 48.4346 10.2778 48.3033 10.1464 48.2596C10.0588 48.2158 9.92736 48.1721 9.75214 48.1721C9.62073 48.1721 9.48932 48.2596 9.40171 48.3471C9.3141 48.4783 9.2703 48.6096 9.2703 48.7846C9.2703 48.9596 9.3579 49.1346 9.48932 49.2221C9.62073 49.3096 9.79594 49.3534 9.97116 49.3096C10.1464 49.3096 10.3216 49.2221 10.4968 49.0909C10.672 48.9596 10.8472 48.7846 11.0663 48.5658L13.9573 45.6781L14.0449 46.7719L11.7233 49.1346C11.4167 49.4409 11.1101 49.7034 10.891 49.8784C10.6282 50.0972 10.3654 50.1847 10.1026 50.2285C9.79594 50.2722 9.53312 50.2285 9.3141 50.0972C9.09508 50.0097 8.91986 49.8347 8.78845 49.6159C8.65704 49.3972 8.56943 49.1346 8.56943 48.8721C8.52563 48.6096 8.56943 48.3471 8.65704 48.1283C8.74465 47.9095 8.87606 47.6908 9.05128 47.5595C9.22649 47.4282 9.44551 47.3407 9.66453 47.3407C9.83975 47.3407 10.015 47.3407 10.1464 47.3845C10.2778 47.4282 10.453 47.5158 10.5844 47.6033C10.7158 47.6908 10.8472 47.822 10.9787 47.9533L11.9423 49.0471C12.0738 49.1784 12.1614 49.2659 12.2928 49.3096C12.4242 49.3534 12.468 49.3972 12.5556 49.3972C12.6432 49.3972 12.7308 49.3972 12.7746 49.3972C12.9498 49.3972 13.0812 49.3534 13.2127 49.2659C13.3441 49.1784 13.4317 49.0909 13.4755 48.9159C13.5193 48.7846 13.5631 48.6096 13.5631 48.4346C13.5631 48.2158 13.4755 48.0408 13.3441 47.822C13.2127 47.647 13.0812 47.472 12.906 47.3407C12.7308 47.2095 12.5118 47.0782 12.249 47.0345C11.9861 46.9907 11.7233 46.947 11.4167 46.947L11.3291 46.1156C11.7233 46.0719 12.1176 46.1156 12.468 46.2031C12.8184 46.2906 13.1251 46.4657 13.4317 46.7282C13.4317 46.7282 13.4755 46.7719 13.5193 46.7719C13.5631 46.7719 13.5631 46.8157 13.6069 46.8157C13.8259 47.0345 14.0011 47.2532 14.1325 47.5158C14.264 47.7783 14.3078 48.0845 14.3516 48.3471C14.3954 48.7409 14.3516 49.0471 14.2202 49.3534C14.0887 49.6159 13.9573 49.8784 13.7383 50.0535C13.5193 50.2285 13.2565 50.316 12.9498 50.3597C12.7308 50.3597 12.5118 50.3597 12.3366 50.2722C12.1614 50.1847 11.9861 50.0535 11.8109 49.9222C11.6357 49.7909 11.4605 49.5722 11.3291 49.3972L10.4968 48.5658Z" fill="#F7DFB5"/>
<path d="M12.7308 42.1342C12.5994 42.1342 12.468 42.1342 12.3365 42.2217C12.2051 42.3092 12.1175 42.3967 12.0299 42.5717C11.9423 42.7467 11.8109 42.9655 11.6795 43.3155C11.5919 43.5343 11.5043 43.753 11.3729 43.9718C11.2414 44.1906 11.11 44.3656 10.9786 44.5406C10.8472 44.7156 10.672 44.8031 10.4968 44.8906C10.3216 44.9781 10.1025 45.0219 9.88352 44.9781C9.57689 44.9781 9.31407 44.8469 9.09505 44.6719C8.87603 44.4968 8.70081 44.2343 8.6132 43.928C8.48179 43.6655 8.43799 43.3155 8.43799 42.9217C8.48179 42.4842 8.5694 42.1341 8.74462 41.8716C8.91983 41.5654 9.13885 41.3466 9.40168 41.2153C9.6645 41.0841 9.97113 40.9966 10.2778 41.0403L10.234 42.0466C10.0587 42.0466 9.88352 42.0466 9.75211 42.1342C9.6207 42.2217 9.48929 42.3092 9.40168 42.4404C9.31407 42.5717 9.27026 42.7905 9.27026 43.0092C9.27026 43.228 9.27026 43.403 9.35787 43.578C9.40168 43.7093 9.48929 43.8405 9.6207 43.928C9.75211 44.0156 9.83972 44.0593 10.0149 44.0593C10.1463 44.0593 10.2778 44.0156 10.3654 43.928C10.4968 43.8405 10.5844 43.7093 10.672 43.5343C10.7596 43.3593 10.8472 43.1405 10.9786 42.878C11.11 42.4842 11.2853 42.1341 11.4605 41.8716C11.6357 41.6091 11.8547 41.4341 12.0737 41.3028C12.2927 41.1716 12.5556 41.1278 12.8622 41.1278C13.1688 41.1278 13.4316 41.2591 13.6507 41.4341C13.8697 41.6091 14.0449 41.8716 14.1325 42.1779C14.2201 42.4842 14.2639 42.8342 14.2639 43.228C14.2639 43.4905 14.1763 43.753 14.0887 44.0156C14.0011 44.2781 13.8697 44.4968 13.6945 44.7156C13.5193 44.9344 13.344 45.0656 13.125 45.1969C12.906 45.3282 12.6432 45.3719 12.3365 45.3282L12.3804 44.3218C12.5556 44.3218 12.7308 44.3218 12.8622 44.2781C12.9936 44.2343 13.0812 44.1468 13.1688 44.0593C13.2564 43.9718 13.3002 43.8405 13.3878 43.6655C13.4316 43.5343 13.4755 43.3593 13.4755 43.1842C13.4755 42.9655 13.4755 42.7905 13.4316 42.6154C13.3878 42.4842 13.3002 42.3529 13.2126 42.2654C12.9936 42.1779 12.8622 42.1342 12.7308 42.1342Z" fill="#F7DFB5"/>
<path d="M12.9936 35.1772L12.2927 34.9585L12.687 33.7771C12.7746 33.4709 12.8184 33.2521 12.7308 33.0333C12.6432 32.8146 12.5118 32.6833 12.2489 32.5958C11.9861 32.5083 11.7671 32.5083 11.5919 32.6395C11.4167 32.7708 11.2853 32.9458 11.1976 33.2958L10.891 34.1709L15.4466 35.7023L15.14 36.6211L9.83972 34.8272L10.453 33.0333C10.672 32.4645 10.9348 32.027 11.2853 31.7645C11.6357 31.5019 12.0299 31.4582 12.5556 31.6332C12.7746 31.7207 12.9498 31.8082 13.0812 31.9832C13.2126 32.1582 13.3002 32.377 13.344 32.5958C13.3878 32.8583 13.3878 33.1208 13.3002 33.4271L13.4317 33.7771L12.9936 35.1772ZM15.2714 36.3148L14.6582 35.6148L15.0524 34.4334C15.14 34.1272 15.14 33.8646 15.0524 33.6896C14.9648 33.4709 14.7896 33.3396 14.5706 33.2521C14.3953 33.2083 14.2201 33.1646 14.0887 33.2083C13.9573 33.2521 13.8259 33.2958 13.6945 33.3834C13.5631 33.4709 13.4755 33.6459 13.4317 33.8646L13.0812 34.9147L12.3804 34.6522L12.8184 33.2958L13.1688 33.1646C13.2564 32.8583 13.4317 32.6395 13.6069 32.5083C13.7821 32.377 14.0011 32.2895 14.2201 32.2458C14.4391 32.202 14.6582 32.2458 14.8772 32.3333C15.4028 32.5083 15.7095 32.8146 15.8847 33.2083C16.0599 33.6021 16.0161 34.1272 15.7971 34.696L15.2714 36.3148Z" fill="#F7DFB5"/>
<path d="M12.7308 27.7392C12.9498 27.3454 13.1688 27.0829 13.3879 26.8641C13.6507 26.6453 13.9135 26.5578 14.2201 26.5141C14.5268 26.4703 14.8334 26.5578 15.14 26.7328C15.4028 26.8641 15.5781 27.0391 15.7095 27.2141C15.8409 27.3892 15.9285 27.6079 15.9723 27.8704C16.0161 28.0892 16.0161 28.3517 15.9723 28.6143V28.9643L15.14 30.5394L14.4392 30.1894L15.0524 29.008C15.14 28.7893 15.2276 28.6143 15.2276 28.4392C15.2276 28.2642 15.1838 28.133 15.0962 28.0017C15.0086 27.8704 14.8772 27.7829 14.7458 27.6954C14.483 27.5642 14.2639 27.5204 14.0011 27.6079C13.7821 27.6954 13.5631 27.8704 13.3879 28.1767L12.906 29.0518L17.155 31.2832L16.717 32.1583L11.8109 29.4893L12.7308 27.7392ZM15.4466 29.2706L15.9285 28.3517L18.732 28.308L18.7758 28.3517L18.2939 29.3143L15.4466 29.2706Z" fill="#F7DFB5"/>
<path d="M19.6081 22.6638C20.0461 23.0138 20.3965 23.3638 20.6156 23.7576C20.8346 24.1514 20.9222 24.5452 20.8784 24.9827C20.8346 25.3765 20.7032 25.7703 20.3965 26.1641C20.1337 26.5141 19.7833 26.7766 19.389 26.9516C18.9948 27.0829 18.6006 27.1266 18.1187 27.0391C17.6807 26.9516 17.2426 26.7329 16.7608 26.4266L16.5856 26.2516C16.1475 25.9015 15.7971 25.5515 15.5781 25.1577C15.3591 24.764 15.2715 24.3702 15.3153 23.9326C15.3591 23.4951 15.4905 23.1451 15.7533 22.7513C16.0161 22.3575 16.3666 22.095 16.7608 21.9637C17.155 21.8325 17.5493 21.7887 17.9873 21.8762C18.4254 21.9637 18.8634 22.1825 19.3452 22.5325L19.6081 22.6638ZM18.7758 23.2763C18.4254 23.0138 18.1187 22.8825 17.8559 22.795C17.5931 22.7075 17.2865 22.7075 17.0674 22.795C16.8484 22.8825 16.6294 23.0138 16.4542 23.2326C16.279 23.4513 16.1914 23.6701 16.1914 23.9326C16.1914 24.1952 16.279 24.4139 16.4542 24.6764C16.6294 24.939 16.8484 25.2015 17.1988 25.4203L17.4179 25.5953C17.7683 25.8578 18.0749 25.9891 18.3378 26.0766C18.6006 26.1641 18.9072 26.1641 19.1262 26.0766C19.3452 25.9891 19.5643 25.8578 19.7395 25.639C19.9147 25.4203 20.0023 25.1577 20.0023 24.939C20.0023 24.7202 19.9147 24.4577 19.7395 24.1952C19.5643 23.9326 19.3014 23.7139 18.9948 23.4513L18.7758 23.2763Z" fill="#F7DFB5"/>
<path d="M21.7545 17.4571L18.6006 20.6074L18.0311 20.0386L21.185 16.8883L21.7545 17.4571ZM23.9009 22.095L23.2 22.795L19.2576 18.8135L19.9585 18.1134L23.9009 22.095Z" fill="#F7DFB5"/>
<path d="M26.3976 19.8636L25.6092 20.4324L22.3239 15.882L23.1123 15.3132L26.3976 19.8636ZM27.1423 16.2758L24.7331 17.9822L24.2512 17.3259L26.6605 15.6195L27.1423 16.2758ZM29.2449 17.8509L28.4564 18.4197L25.1711 13.8693L25.9596 13.3005L29.2449 17.8509Z" fill="#F7DFB5"/>
<path d="M31.0409 16.8883L30.1648 17.3258L27.6241 12.3379L28.5002 11.9003L31.0409 16.8883ZM31.2161 11.4191L28.5878 12.7754L28.2374 12.0754L30.8656 10.719L31.2161 11.4191ZM31.9169 13.6505L29.6391 14.8318L29.2887 14.1318L31.5665 12.9504L31.9169 13.6505ZM33.4063 15.6632L30.778 17.0195L30.4276 16.3195L33.0558 14.9631L33.4063 15.6632Z" fill="#F7DFB5"/>
<path d="M34.1509 9.45016C34.5451 9.3189 34.9394 9.27515 35.246 9.27515C35.5964 9.3189 35.8593 9.40641 36.1221 9.62518C36.3411 9.80019 36.5163 10.0627 36.6477 10.4127C36.7353 10.6753 36.7791 10.9378 36.7353 11.1566C36.6915 11.3753 36.6477 11.5941 36.4725 11.8129C36.3411 12.0316 36.1659 12.2066 35.9469 12.3379L35.7279 12.6004L34.0633 13.1692L33.8005 12.4254L35.027 11.9879C35.246 11.9004 35.4212 11.8129 35.5088 11.6816C35.6402 11.5503 35.684 11.4191 35.7279 11.2441C35.7717 11.069 35.7279 10.9378 35.684 10.7628C35.5964 10.5002 35.4212 10.2815 35.246 10.194C35.027 10.1065 34.7642 10.1065 34.4137 10.194L33.45 10.5002L34.9832 15.0506L34.0633 15.3569L32.2673 10.1065L34.1509 9.45016ZM35.027 12.4254L36.0345 12.0754L38.0933 14.0005V14.0443L37.0858 14.3943L35.027 12.4254Z" fill="#F7DFB5"/>
<path d="M41.291 11.9878C41.2472 11.8566 41.2034 11.7253 41.1158 11.6378C41.0282 11.5503 40.8968 11.4628 40.7216 11.419C40.5463 11.3753 40.2835 11.3315 39.9331 11.2878C39.6703 11.244 39.4074 11.2003 39.1446 11.1565C38.9256 11.1128 38.7066 11.0253 38.4876 10.894C38.2685 10.7627 38.1371 10.6752 38.0057 10.5002C37.8743 10.3252 37.7867 10.1502 37.7429 9.93142C37.6991 9.62515 37.7429 9.36263 37.8305 9.1001C37.9619 8.83758 38.1371 8.61881 38.4438 8.4438C38.7066 8.26879 39.057 8.13753 39.4513 8.05002C39.8455 7.96251 40.2397 8.00626 40.5464 8.09377C40.853 8.18128 41.1158 8.35629 41.3348 8.57506C41.5538 8.79383 41.6853 9.05635 41.7291 9.36263L40.853 9.49389C40.8092 9.31887 40.7654 9.18761 40.6778 9.05635C40.5902 8.92509 40.4587 8.83758 40.2835 8.79383C40.1083 8.75008 39.9331 8.75008 39.6703 8.79383C39.4513 8.83758 39.276 8.88134 39.1446 9.0126C39.0132 9.1001 38.9256 9.23137 38.8818 9.31887C38.838 9.40638 38.838 9.58139 38.838 9.71265C38.8818 9.84392 38.9256 9.97518 39.0132 10.0627C39.1008 10.1502 39.276 10.2377 39.4513 10.2815C39.6265 10.3252 39.8893 10.369 40.1521 10.4127C40.5902 10.4565 40.9406 10.544 41.2472 10.6315C41.5538 10.719 41.7729 10.894 41.9481 11.069C42.1233 11.244 42.2547 11.5066 42.2985 11.8128C42.3423 12.1191 42.3423 12.4254 42.2109 12.6441C42.0795 12.9067 41.9043 13.1254 41.6415 13.3004C41.3786 13.4755 41.0282 13.6067 40.634 13.6505C40.3711 13.6942 40.1083 13.6942 39.8455 13.6942C39.5827 13.6505 39.3198 13.6067 39.1008 13.4755C38.8818 13.388 38.6628 13.2129 38.4876 13.0379C38.3123 12.8629 38.2247 12.6004 38.1371 12.2941L39.1008 12.1191C39.1446 12.2941 39.1884 12.4254 39.276 12.5566C39.3636 12.6879 39.4512 12.7754 39.5827 12.8192C39.7141 12.8629 39.8455 12.9067 39.9769 12.9067C40.1083 12.9067 40.2835 12.9067 40.4587 12.8629C40.6778 12.8192 40.853 12.7754 40.9844 12.6879C41.1158 12.6004 41.2034 12.5129 41.291 12.3816C41.291 12.2504 41.291 12.1191 41.291 11.9878Z" fill="#F7DFB5"/>
<path d="M49.5261 12.4692C49.4385 12.5567 49.3071 12.6879 49.1319 12.7754C48.9567 12.9067 48.7377 12.9942 48.4748 13.0817C48.212 13.1692 47.8616 13.213 47.4235 13.1692C46.9417 13.1692 46.5475 13.038 46.197 12.8192C45.8466 12.6004 45.5838 12.2941 45.3648 11.8566C45.1895 11.4628 45.1019 10.9815 45.1019 10.4127V10.019C45.1019 9.45017 45.2333 8.96888 45.4524 8.57509C45.6714 8.18131 45.9342 7.87504 46.2846 7.70002C46.6789 7.52501 47.0731 7.4375 47.555 7.4375C48.0368 7.4375 48.3872 7.52501 48.6939 7.70002C49.0005 7.87504 49.2195 8.0938 49.3947 8.35633C49.5699 8.61885 49.6575 8.92512 49.6575 9.3189L48.6939 9.27515C48.6939 9.10014 48.6063 8.92512 48.5186 8.75011C48.431 8.61885 48.2996 8.48759 48.1682 8.40008C47.993 8.31257 47.8178 8.26882 47.555 8.26882C47.2483 8.26882 47.0293 8.31257 46.8103 8.44383C46.5913 8.57509 46.4599 8.79386 46.3284 9.05638C46.2408 9.3189 46.1532 9.66893 46.1532 10.0627V10.4565C46.1532 10.8503 46.197 11.2003 46.2846 11.5066C46.3722 11.8129 46.5475 12.0316 46.7665 12.1629C46.9855 12.3379 47.2483 12.3817 47.5112 12.4254C47.7302 12.4254 47.9054 12.4254 48.0368 12.3817C48.1682 12.3379 48.2996 12.2941 48.3872 12.2504C48.4748 12.2066 48.5186 12.1629 48.5624 12.1191L48.6063 11.0253L47.4673 10.9815L47.5112 10.2377L49.6137 10.3252L49.5261 12.4692Z" fill="#F7DFB5"/>
<path d="M55.3521 11.5503C55.2206 12.1191 55.0454 12.5567 54.7826 12.9067C54.5198 13.2567 54.1693 13.5193 53.8189 13.6505C53.4247 13.7818 53.0304 13.8255 52.5486 13.738C52.1106 13.6505 51.7163 13.4755 51.4097 13.1692C51.1031 12.863 50.884 12.5129 50.7964 12.0754C50.665 11.6379 50.665 11.1566 50.7964 10.5878L50.8402 10.3252C50.9717 9.75645 51.1469 9.31891 51.4097 8.96889C51.6725 8.61886 52.0229 8.35634 52.4172 8.22507C52.8114 8.09381 53.2057 8.05006 53.6875 8.13757C54.1255 8.22507 54.5198 8.40009 54.8264 8.70636C55.133 8.96889 55.3521 9.36267 55.4397 9.8002C55.5711 10.2377 55.5711 10.719 55.4397 11.2878L55.3521 11.5503ZM54.4322 11.0691C54.5198 10.6753 54.5198 10.3252 54.476 10.019C54.4322 9.7127 54.3008 9.49393 54.1693 9.31891C54.0379 9.1439 53.7751 9.01264 53.5123 8.96889C53.2495 8.92513 52.9866 8.92513 52.7676 9.05639C52.5486 9.1439 52.3734 9.31891 52.1982 9.58144C52.0229 9.84396 51.9353 10.1502 51.8477 10.5878L51.8039 10.894C51.7163 11.2878 51.7163 11.6379 51.7601 11.9441C51.8039 12.2504 51.9353 12.4692 52.0668 12.6879C52.1982 12.9067 52.461 12.9942 52.7238 13.038C52.9866 13.0817 53.2495 13.0817 53.4685 12.9505C53.6875 12.863 53.8627 12.6442 54.0379 12.4254C54.2132 12.1629 54.3008 11.8129 54.3884 11.4191L54.4322 11.0691Z" fill="#F7DFB5"/>
<path d="M56.5786 14.7881L55.6587 14.4381L57.5423 9.18762L58.4621 9.53765L56.5786 14.7881ZM58.9878 15.6632L56.3596 14.7006L56.6224 13.9568L59.2506 14.9193L58.9878 15.6632Z" fill="#F7DFB5"/>
<path d="M60.4333 16.3632L59.5573 15.8819L62.1855 10.9377L63.0616 11.419L60.4333 16.3632ZM59.9515 16.1007L60.3457 15.4006L61.397 15.9694C61.7037 16.1444 62.0103 16.1882 62.2731 16.1882C62.5359 16.1444 62.7988 16.0569 63.0178 15.8819C63.2368 15.7069 63.4558 15.4444 63.631 15.0943L63.7624 14.8318C63.9377 14.4818 64.0691 14.1755 64.0691 13.8692C64.1129 13.563 64.0253 13.3004 63.8939 13.0817C63.7624 12.8629 63.5434 12.6441 63.2368 12.5129L62.1417 11.9441L62.5359 11.244L63.631 11.8128C64.0691 12.0316 64.4195 12.3379 64.6385 12.7316C64.8575 13.1254 64.989 13.5192 64.989 13.9567C64.989 14.3943 64.8575 14.8756 64.5947 15.3569L64.4633 15.6194C64.2005 16.1007 63.8939 16.4507 63.4996 16.7132C63.1054 16.9757 62.7111 17.107 62.2731 17.107C61.8351 17.107 61.397 17.0195 60.9152 16.757L59.9515 16.1007Z" fill="#F7DFB5"/>
<path d="M70.8587 26.1641L70.4645 25.6828L75.6772 21.5699L76.0714 22.0512L70.8587 26.1641Z" fill="#F7DFB5"/>
<path d="M78.3055 37.7588L77.298 38.1963L77.1228 37.4525L82.1603 34.3022L82.3793 35.3523L78.3055 37.7588ZM83.0363 38.1088L83.2554 39.1589L77.3418 38.4151L77.1666 37.6713L78.2617 37.6275L83.0363 38.1088Z" fill="url(#paint1_linear_12_4637)"/>
<path d="M81.5908 42.2654C81.7222 42.3966 81.8098 42.5279 81.9412 42.5716C82.0288 42.6154 82.1602 42.6591 82.3355 42.6591C82.4669 42.6591 82.5983 42.5716 82.6859 42.4841C82.7735 42.3966 82.8173 42.2216 82.8173 42.0466C82.8173 41.8716 82.7297 41.6966 82.5983 41.609C82.4669 41.5215 82.2917 41.4778 82.1164 41.4778C81.9412 41.4778 81.766 41.5653 81.5908 41.6966C81.4156 41.8278 81.1965 42.0028 81.0213 42.2216L78.0865 45.0656L77.9989 43.9717L80.3643 41.6528C80.6709 41.3465 80.9775 41.084 81.2404 40.909C81.5032 40.734 81.766 40.6027 82.0288 40.6027C82.3355 40.6027 82.5983 40.6465 82.8173 40.734C83.0363 40.8215 83.2115 40.9965 83.3429 41.2153C83.4744 41.434 83.562 41.6966 83.562 42.0028C83.562 42.2654 83.5182 42.5279 83.4306 42.7466C83.3429 42.9654 83.1677 43.1404 82.9925 43.2717C82.8173 43.4029 82.5983 43.4467 82.3793 43.4905C82.204 43.4905 82.0288 43.4905 81.8974 43.4467C81.766 43.4029 81.5908 43.3154 81.4594 43.2279C81.328 43.1404 81.1966 43.0092 81.0651 42.8779L80.1453 41.7403C80.0138 41.609 79.9262 41.5215 79.8386 41.4778C79.751 41.434 79.6634 41.3903 79.5758 41.3903C79.4882 41.3903 79.4006 41.3903 79.3568 41.3903C79.1816 41.3903 79.0502 41.434 78.9187 41.5215C78.7873 41.609 78.6997 41.6966 78.6121 41.8278C78.5245 41.9591 78.5245 42.1341 78.5245 42.3091C78.5245 42.5279 78.6121 42.7029 78.6997 42.9217C78.7873 43.1404 78.9625 43.2717 79.1378 43.4467C79.313 43.578 79.532 43.7092 79.7948 43.7967C80.0576 43.8842 80.3205 43.8842 80.6271 43.8842L80.6709 44.7156C80.2767 44.7593 79.8824 44.7156 79.532 44.628C79.1816 44.5405 78.8749 44.3655 78.6121 44.103C78.6121 44.103 78.5683 44.0592 78.5245 44.0592C78.4807 44.0592 78.4807 44.0155 78.4369 44.0155C78.2179 43.7967 78.0427 43.578 77.9551 43.3154C77.8674 43.0529 77.7798 42.7466 77.736 42.4404C77.6922 42.0466 77.736 41.7403 77.8674 41.4778C77.9989 41.2153 78.1741 40.9527 78.3931 40.8215C78.6121 40.6465 78.8749 40.559 79.1816 40.559C79.4006 40.559 79.6196 40.559 79.7948 40.6465C79.97 40.734 80.1453 40.8652 80.3205 40.9965C80.4957 41.1715 80.6271 41.3465 80.8023 41.5215L81.5908 42.2654Z" fill="url(#paint2_linear_12_4637)"/>
<path d="M79.2253 48.6097C79.3567 48.6097 79.4881 48.6097 79.6195 48.566C79.751 48.5222 79.8386 48.391 79.9262 48.2597C80.0138 48.0847 80.1452 47.8659 80.2766 47.5596C80.3642 47.2971 80.4956 47.0784 80.627 46.8596C80.7585 46.6408 80.8899 46.4658 81.0213 46.2908C81.1527 46.1158 81.3279 46.0283 81.5031 45.9408C81.6783 45.8533 81.8974 45.8095 82.1164 45.8533C82.423 45.897 82.6858 45.9845 82.9049 46.1595C83.1239 46.3345 83.2991 46.5971 83.3867 46.9033C83.4743 47.2096 83.5181 47.5596 83.5181 47.9534C83.4743 48.391 83.3867 48.741 83.2115 49.0035C83.0363 49.3098 82.8172 49.5286 82.5544 49.6598C82.2916 49.7911 81.985 49.8786 81.6783 49.8348L81.7659 48.8285C81.9412 48.8285 82.1164 48.8285 82.2478 48.741C82.3792 48.6972 82.5106 48.566 82.5982 48.4347C82.6858 48.3035 82.7296 48.0847 82.7734 47.8659C82.7734 47.6472 82.7734 47.4721 82.7296 47.2971C82.6858 47.1221 82.5982 47.0346 82.4668 46.9471C82.3792 46.8596 82.2478 46.8158 82.0726 46.8158C81.9412 46.8158 81.8098 46.8596 81.7221 46.9033C81.5907 46.9908 81.5031 47.1221 81.4155 47.2971C81.3279 47.4721 81.1965 47.6909 81.1089 47.9534C80.9337 48.3472 80.8023 48.6972 80.5832 48.9598C80.408 49.2223 80.189 49.3973 79.97 49.5286C79.751 49.6598 79.4881 49.7036 79.1815 49.6598C78.8749 49.6161 78.6121 49.5286 78.393 49.3535C78.174 49.1785 77.9988 48.916 77.9112 48.6097C77.8236 48.3035 77.7798 47.9534 77.8236 47.5596C77.8236 47.2971 77.9112 47.0346 77.9988 46.7721C78.0864 46.5096 78.2178 46.2908 78.393 46.072C78.5683 45.8533 78.7435 45.722 79.0063 45.5907C79.2253 45.5032 79.4881 45.4595 79.7948 45.4595L79.7072 46.4658C79.5319 46.4658 79.3567 46.4658 79.2253 46.5096C79.0939 46.5533 79.0063 46.6408 78.8749 46.7283C78.7435 46.8158 78.6997 46.9471 78.6559 47.0784C78.6121 47.2096 78.5683 47.3846 78.5683 47.5596C78.5683 47.7784 78.5683 47.9534 78.6121 48.1284C78.6559 48.2597 78.7435 48.391 78.8311 48.4785C78.9187 48.566 79.0939 48.6097 79.2253 48.6097Z" fill="url(#paint3_linear_12_4637)"/>
<path d="M76.5533 54.3851L77.1665 55.0852L76.7285 56.2665C76.6409 56.5728 76.5971 56.8353 76.6847 57.0104C76.7723 57.2291 76.9475 57.3604 77.1665 57.4479C77.3417 57.4916 77.517 57.5354 77.6484 57.5354C77.7798 57.5354 77.9112 57.4479 78.0426 57.3604C78.174 57.2729 78.2616 57.0979 78.3054 56.9228L78.6997 55.9165L79.3567 56.179L78.8749 57.4916L78.5245 57.6229C78.393 57.9292 78.2616 58.1479 78.0864 58.2792C77.9112 58.4105 77.6922 58.498 77.4732 58.5417C77.2541 58.5855 77.0351 58.5417 76.8161 58.4542C76.2905 58.2792 75.9838 57.9729 75.8524 57.5354C75.721 57.0979 75.7648 56.6166 75.94 56.0478L76.5533 54.3851ZM78.8311 55.5665L79.532 55.829L79.0939 57.0104C79.0063 57.3166 78.9625 57.5354 79.0501 57.7542C79.1377 57.9729 79.2691 58.1042 79.4881 58.1917C79.751 58.2792 79.97 58.2792 80.1452 58.1917C80.3204 58.1042 80.4518 57.8854 80.5832 57.5354L80.8899 56.6603L76.3781 54.9977L76.7285 54.0789L81.985 56.004L81.3279 57.7979C81.1089 58.3667 80.8461 58.8042 80.4956 59.023C80.1452 59.2855 79.7072 59.2855 79.2253 59.1105C79.0063 59.023 78.8311 58.8918 78.6997 58.7167C78.5683 58.5417 78.4807 58.323 78.4369 58.1042C78.393 57.8417 78.4368 57.5791 78.5245 57.2729L78.393 56.9228L78.8311 55.5665Z" fill="url(#paint4_linear_12_4637)"/>
<path d="M76.2467 61.4295L75.7649 62.3483L72.9614 62.3046L72.9176 62.2608L73.4432 61.342L76.2467 61.4295ZM78.9188 63.0046C78.6997 63.3984 78.4807 63.6609 78.2179 63.8797C77.9551 64.0985 77.6922 64.186 77.3856 64.2297C77.079 64.2297 76.7724 64.186 76.4657 64.0109C76.2029 63.8797 76.0277 63.7047 75.8963 63.5297C75.7649 63.3546 75.6773 63.1359 75.6335 62.8734C75.5896 62.6546 75.5896 62.3921 75.6773 62.1295V61.7795L76.5533 60.2044L77.2542 60.5982L76.6409 61.7358C76.5095 61.9545 76.4657 62.1295 76.4657 62.3046C76.4657 62.4796 76.5095 62.6108 76.5971 62.7421C76.6848 62.8734 76.8162 63.0046 76.9476 63.0484C77.2104 63.1796 77.4294 63.2234 77.6484 63.1796C77.8675 63.1359 78.0865 62.9171 78.2617 62.6108L78.7435 61.7358L74.5384 59.4168L75.0202 58.5417L79.9262 61.2545L78.9188 63.0046Z" fill="url(#paint5_linear_12_4637)"/>
<path d="M71.9539 67.905C71.5159 67.555 71.1654 67.1612 70.9902 66.7674C70.7712 66.3736 70.6836 65.9361 70.7274 65.5423C70.7712 65.1485 70.9464 64.7548 71.2092 64.361C71.4721 64.011 71.8225 63.7484 72.2167 63.6172C72.611 63.4859 73.0052 63.4422 73.487 63.5297C73.9689 63.6172 74.3631 63.8359 74.845 64.186L75.064 64.361C75.502 64.711 75.8525 65.1048 76.0277 65.4986C76.2029 65.8924 76.2905 66.3299 76.2905 66.7237C76.2467 67.1175 76.0715 67.5112 75.8087 67.8613C75.502 68.2113 75.1954 68.4738 74.8012 68.6488C74.4069 68.7801 74.0127 68.8238 73.5746 68.7363C73.1366 68.6488 72.6986 68.4301 72.2167 68.08L71.9539 67.905ZM72.7862 67.3362C73.0928 67.5987 73.3994 67.7738 73.7061 67.8613C74.0127 67.9488 74.2755 67.9488 74.4945 67.905C74.7136 67.8175 74.9326 67.6862 75.1078 67.4675C75.283 67.2487 75.3706 67.0299 75.3706 66.7674C75.3706 66.5049 75.283 66.2861 75.1516 66.0236C74.9764 65.7611 74.7574 65.4986 74.4069 65.2798L74.1879 65.1048C73.8813 64.8423 73.5308 64.6673 73.268 64.5797C72.9614 64.4922 72.6986 64.4922 72.4795 64.536C72.2605 64.6235 72.0415 64.7548 71.8663 64.9735C71.6911 65.1923 71.6035 65.4548 71.6035 65.6736C71.6035 65.8924 71.6911 66.1549 71.8225 66.4174C71.9977 66.6799 72.2167 66.9424 72.5671 67.1612L72.7862 67.3362Z" fill="url(#paint6_linear_12_4637)"/>
<path d="M67.6611 68.3863L68.362 67.6863L72.2168 71.7554L71.5159 72.4554L67.6611 68.3863ZM69.7199 73.068L72.9614 70.0052L73.5309 70.574L70.2894 73.6368L69.7199 73.068Z" fill="url(#paint7_linear_12_4637)"/>
<path d="M62.2294 72.5428L63.0616 71.974L66.2593 76.5682L65.4271 77.137L62.2294 72.5428ZM64.2882 74.1617L66.6974 72.4991L67.1354 73.1554L64.7262 74.818L64.2882 74.1617ZM65.0766 70.5739L65.9089 70.0051L69.1066 74.5993L68.2743 75.1681L65.0766 70.5739Z" fill="url(#paint8_linear_12_4637)"/>
<path d="M57.9803 74.6431L60.6524 73.3742L61.0028 74.0743L58.3308 75.3431L57.9803 74.6431ZM59.4259 76.6995L61.7475 75.5619L62.0979 76.2619L59.7763 77.3995L59.4259 76.6995ZM60.1267 78.9309L62.755 77.6621L63.1054 78.3621L60.4772 79.631L60.1267 78.9309ZM60.4334 73.4617L61.3095 73.0242L63.7625 78.0558L62.8864 78.4934L60.4334 73.4617Z" fill="url(#paint9_linear_12_4637)"/>
<path d="M56.272 77.837L55.2645 78.1433L53.2495 76.1744V76.1307L54.257 75.8244L56.272 77.837ZM57.1043 80.8123C56.71 80.9436 56.3158 80.9873 56.0092 80.9436C55.7025 80.8998 55.3959 80.8123 55.1769 80.5935C54.9579 80.4185 54.7827 80.1122 54.6512 79.7622C54.5636 79.4997 54.5198 79.2372 54.5636 79.0184C54.6074 78.7996 54.695 78.5809 54.8265 78.3621C54.9579 78.1433 55.1331 78.0121 55.3521 77.837L55.5711 77.6183L57.2795 77.0932L57.5423 77.837L56.272 78.2308C56.053 78.3183 55.8778 78.4058 55.7463 78.5371C55.6149 78.6684 55.5273 78.7996 55.5273 78.9309C55.5273 79.0621 55.5273 79.2372 55.5711 79.4122C55.6587 79.6747 55.7901 79.8935 56.0092 79.981C56.2282 80.0685 56.491 80.1122 56.8414 79.981L57.8051 79.6747L56.3596 75.0806L57.3233 74.7743L58.9878 80.1122L57.1043 80.8123Z" fill="url(#paint10_linear_12_4637)"/>
<path d="M50.0519 78.1433C50.0957 78.2746 50.1395 78.4058 50.2271 78.4934C50.3147 78.5809 50.4461 78.6684 50.6213 78.7121C50.7965 78.7559 51.0594 78.8434 51.4098 78.8871C51.6726 78.9309 51.9354 78.9746 52.1983 79.0622C52.4173 79.1497 52.6363 79.1934 52.8553 79.3247C53.0744 79.4559 53.2058 79.5434 53.2934 79.7185C53.4248 79.8935 53.5124 80.0685 53.5124 80.2873C53.5562 80.5935 53.5124 80.856 53.381 81.1186C53.2496 81.3811 53.0305 81.5999 52.7677 81.7749C52.5049 81.9499 52.1545 82.0811 51.7602 82.1249C51.366 82.2124 50.9718 82.1687 50.6651 82.0812C50.3585 81.9936 50.0957 81.8186 49.8767 81.5999C49.6576 81.3811 49.57 81.1186 49.4824 80.7685L50.4461 80.5935C50.4899 80.7685 50.5337 80.8998 50.6213 81.0311C50.7089 81.1623 50.8403 81.2498 51.0156 81.2936C51.1908 81.3373 51.366 81.3373 51.6288 81.3373C51.8478 81.2936 52.0231 81.2498 52.1545 81.1623C52.2859 81.0748 52.3735 80.9873 52.4173 80.8561C52.4611 80.7248 52.5049 80.5935 52.4611 80.4623C52.4611 80.331 52.3735 80.1997 52.2859 80.1122C52.1983 80.0247 52.0231 79.9372 51.8478 79.8935C51.6726 79.8497 51.4098 79.806 51.147 79.7622C50.7089 79.7185 50.3585 79.6309 50.0519 79.4997C49.7452 79.3684 49.5262 79.2372 49.351 79.0184C49.1758 78.8434 49.0882 78.5809 49.0444 78.2746C49.0006 77.9683 49.0444 77.662 49.1758 77.4433C49.3072 77.2245 49.4824 76.962 49.7891 76.8307C50.0519 76.6557 50.4023 76.5244 50.7965 76.4807C51.0594 76.4369 51.3222 76.4369 51.585 76.4807C51.8478 76.5244 52.1107 76.5682 52.3297 76.6995C52.5487 76.8307 52.7677 76.962 52.8991 77.1807C53.0744 77.3995 53.162 77.6183 53.2058 77.9246L52.2421 78.0996C52.1983 77.9246 52.1545 77.7933 52.0669 77.662C51.9793 77.5308 51.8916 77.4433 51.7602 77.3995C51.6288 77.3558 51.4974 77.312 51.366 77.2683C51.2346 77.2683 51.0594 77.2683 50.8842 77.2683C50.6651 77.312 50.4899 77.3558 50.3585 77.4433C50.2271 77.5308 50.1395 77.6183 50.0519 77.7495C50.0519 77.8808 50.0081 78.0121 50.0519 78.1433Z" fill="url(#paint11_linear_12_4637)"/>
<path d="M41.8167 77.487C41.9043 77.3995 42.0357 77.2683 42.2109 77.1808C42.3862 77.0495 42.6052 76.962 42.9118 76.8745C43.1746 76.787 43.5251 76.787 43.9631 76.787C44.445 76.8307 44.8392 76.9182 45.1896 77.1808C45.5401 77.4433 45.8029 77.7496 45.9781 78.1434C46.1533 78.5371 46.2409 79.0622 46.1971 79.631V80.0248C46.1533 80.5935 46.0657 81.0748 45.8467 81.4686C45.6277 81.8624 45.3648 82.1687 45.0144 82.3437C44.664 82.5187 44.2259 82.6062 43.7441 82.6062C43.2622 82.5625 42.9118 82.475 42.6052 82.2999C42.2986 82.1249 42.0795 81.9062 41.9481 81.6436C41.8167 81.3811 41.7291 81.0311 41.6853 80.6811L42.649 80.7248C42.649 80.8998 42.7366 81.0748 42.7804 81.2499C42.8242 81.4249 42.9556 81.5124 43.1308 81.6436C43.3061 81.7311 43.4813 81.7749 43.7441 81.8187C44.0507 81.8187 44.2697 81.7749 44.4888 81.6436C44.7078 81.5124 44.8392 81.2936 44.9706 81.0311C45.102 80.7686 45.1458 80.4185 45.1896 80.0248V79.631C45.1896 79.2372 45.1896 78.8872 45.0582 78.5809C44.9706 78.2746 44.7954 78.0558 44.6202 77.9246C44.4012 77.7496 44.1821 77.6621 43.8755 77.6621C43.6565 77.6621 43.4813 77.6621 43.3499 77.7058C43.2184 77.7496 43.087 77.7933 42.9994 77.8371C42.9118 77.8808 42.868 77.9246 42.8242 77.9683L42.7804 79.0622L43.9193 79.1059L43.8755 79.8497L41.7291 79.7185L41.8167 77.487Z" fill="url(#paint12_linear_12_4637)"/>
<path d="M35.9908 78.2746C36.1222 77.7058 36.2974 77.2682 36.6041 76.9182C36.9107 76.5682 37.2173 76.3057 37.6116 76.1744C38.0058 76.0431 38.4 75.9994 38.8819 76.1306C39.3199 76.2182 39.7142 76.4369 39.977 76.6994C40.2836 77.0057 40.4588 77.3557 40.5902 77.7933C40.6778 78.2308 40.6778 78.7121 40.5464 79.2809L40.5026 79.5434C40.3712 80.1122 40.196 80.5498 39.8894 80.8998C39.5827 81.2498 39.2761 81.5123 38.8819 81.6436C38.4876 81.7749 38.0934 81.8186 37.6116 81.6874C37.1735 81.5998 36.7793 81.3811 36.4727 81.1186C36.166 80.856 35.9908 80.4622 35.8594 80.0247C35.7718 79.5872 35.7718 79.1059 35.9032 78.5371L35.9908 78.2746ZM36.8669 78.7996C36.7793 79.1934 36.7355 79.5434 36.7793 79.8497C36.8231 80.156 36.9107 80.3747 37.0859 80.5935C37.2611 80.7685 37.4801 80.8998 37.743 80.9435C38.0058 80.9873 38.2686 80.9873 38.4876 80.8998C38.7067 80.8123 38.9257 80.6373 39.0571 80.3747C39.2323 80.1122 39.3637 79.8059 39.4513 79.3684L39.4951 79.0621C39.5827 78.6684 39.6265 78.3183 39.5827 78.0121C39.5389 77.7058 39.4513 77.487 39.2761 77.2682C39.1009 77.0495 38.8819 76.962 38.6191 76.9182C38.3562 76.8745 38.0934 76.8745 37.8744 76.962C37.6554 77.0495 37.4363 77.2245 37.3049 77.487C37.1297 77.7495 36.9983 78.0558 36.9107 78.4933L36.8669 78.7996Z" fill="url(#paint13_linear_12_4637)"/>
<path d="M32.4426 74.118L35.0709 75.1244L34.7642 75.8682L32.136 74.8619L32.4426 74.118ZM34.808 75.0369L35.7279 75.3869L33.7129 80.5936L32.793 80.2435L34.808 75.0369Z" fill="url(#paint14_linear_12_4637)"/>
<path d="M31.479 73.6367L31.0848 74.3368L30.0335 73.768C29.7268 73.593 29.464 73.5055 29.1574 73.5492C28.8508 73.593 28.6317 73.6805 28.3689 73.8555C28.1499 74.0305 27.9309 74.293 27.7119 74.6431L27.5804 74.9056C27.4052 75.2556 27.2738 75.5619 27.23 75.8682C27.1862 76.1744 27.23 76.437 27.3614 76.6557C27.4928 76.8745 27.7119 77.0933 27.9747 77.2683L29.0698 77.8808L28.6755 78.5809L27.5804 77.9683C27.1424 77.7058 26.792 77.3996 26.573 77.0495C26.3539 76.6557 26.2225 76.262 26.2663 75.8244C26.3101 75.3869 26.3977 74.9056 26.6606 74.4681L26.792 74.2055C27.0548 73.7243 27.3614 73.3742 27.7557 73.1555C28.1499 72.8929 28.5441 72.8054 28.9822 72.8054C29.4202 72.8054 29.8583 72.9367 30.2963 73.1555L31.479 73.6367ZM30.9972 73.3742L31.8732 73.8555L29.1574 78.7559L28.2813 78.2746L30.9972 73.3742Z" fill="url(#paint15_linear_12_4637)"/>
<path d="M20.7908 63.3546L21.185 63.8797L15.8847 67.8612L15.4905 67.3362L20.7908 63.3546Z" fill="url(#paint16_linear_12_4637)"/>
<path d="M8.74464 52.285L8.48181 51.2349L14.3954 51.8912L14.5706 52.5912L13.4755 52.635L8.74464 52.285ZM13.4755 52.5475L14.4392 52.1099L14.6144 52.81L9.62072 56.0478L9.35789 54.9977L13.4755 52.5475Z" fill="url(#paint17_linear_12_4637)"/>
<path d="M10.0588 48.1283C9.92741 47.9971 9.8398 47.8658 9.70839 47.8221C9.62078 47.7783 9.48937 47.7346 9.31415 47.7346C9.18274 47.7346 9.05133 47.8221 8.96372 47.9096C8.87611 48.0408 8.83231 48.1721 8.83231 48.3471C8.83231 48.5221 8.91991 48.6971 9.05133 48.7846C9.18274 48.8721 9.35796 48.9159 9.53317 48.8721C9.70839 48.8721 9.8836 48.7846 10.0588 48.6534C10.234 48.5221 10.4093 48.3471 10.6283 48.1283L13.5193 45.2406L13.6069 46.3344L11.2853 48.6971C10.9787 49.0034 10.6721 49.2659 10.4531 49.4409C10.1902 49.6597 9.92741 49.7472 9.66458 49.791C9.35796 49.8347 9.09513 49.791 8.87611 49.6597C8.65709 49.5722 8.48187 49.3972 8.35046 49.1784C8.21905 48.9597 8.13144 48.6971 8.13144 48.4346C8.08764 48.1721 8.13144 47.9096 8.21905 47.6908C8.30666 47.472 8.43807 47.2533 8.61329 47.122C8.7885 46.9907 9.00752 46.9032 9.22654 46.9032C9.40176 46.9032 9.57698 46.9032 9.70839 46.947C9.8398 46.9907 10.015 47.0783 10.1464 47.1658C10.2778 47.2533 10.4093 47.3845 10.5407 47.5158L11.5044 48.6096C11.6358 48.7409 11.7234 48.8284 11.8548 48.8721C11.9862 48.9159 12.03 48.9597 12.1176 48.9597C12.2052 48.9597 12.2928 48.9597 12.3366 48.9597C12.5118 48.9597 12.6433 48.9159 12.7747 48.8284C12.9061 48.7409 12.9937 48.6534 13.0375 48.4784C13.0813 48.3471 13.1251 48.1721 13.1251 47.9971C13.1251 47.7783 13.0375 47.6033 12.9061 47.3845C12.7747 47.2095 12.6433 47.0345 12.468 46.9032C12.2928 46.772 12.0738 46.6407 11.811 46.597C11.5482 46.5532 11.2853 46.5095 10.9787 46.5095L10.8911 45.6781C11.2853 45.6344 11.6796 45.6781 12.03 45.7656C12.3804 45.8531 12.6871 46.0282 12.9937 46.2907C12.9937 46.2907 13.0375 46.3344 13.0813 46.3344C13.1251 46.3344 13.1251 46.3782 13.1689 46.3782C13.3879 46.597 13.5631 46.8157 13.6946 47.0783C13.826 47.3408 13.8698 47.647 13.9136 47.9096C13.9574 48.3034 13.9136 48.6096 13.7822 48.9159C13.6508 49.1784 13.5193 49.4409 13.3003 49.616C13.0813 49.791 12.8185 49.8785 12.5118 49.9222C12.2928 49.9222 12.0738 49.9222 11.8986 49.8347C11.7234 49.7472 11.5482 49.616 11.3729 49.4847C11.1977 49.3534 11.0225 49.1347 10.8911 48.9597L10.0588 48.1283Z" fill="url(#paint18_linear_12_4637)"/>
<path d="M12.2928 41.6967C12.1614 41.6967 12.03 41.6967 11.8986 41.7842C11.7671 41.8717 11.6795 41.9592 11.5919 42.1342C11.5043 42.3092 11.3729 42.528 11.2415 42.878C11.1539 43.0968 11.0663 43.3155 10.9349 43.5343C10.8035 43.7531 10.672 43.9281 10.5406 44.1031C10.4092 44.2781 10.234 44.3656 10.0588 44.4531C9.88357 44.5406 9.66455 44.5844 9.44553 44.5406C9.1389 44.5406 8.87608 44.4094 8.65706 44.2344C8.43804 44.0593 8.26282 43.7968 8.17522 43.4905C8.0438 43.228 8 42.878 8 42.4842C8.0438 42.0467 8.13141 41.6966 8.30663 41.4341C8.48184 41.1279 8.70086 40.9091 8.96369 40.7778C9.22651 40.6466 9.53314 40.5591 9.83977 40.6028L9.79597 41.6091C9.62075 41.6091 9.44553 41.6091 9.31412 41.6967C9.18271 41.7842 9.0513 41.8717 8.96369 42.0029C8.87608 42.1342 8.83228 42.353 8.83228 42.5717C8.83228 42.7905 8.83228 42.9655 8.91988 43.1405C8.96369 43.2718 9.0513 43.403 9.18271 43.4905C9.31412 43.5781 9.40173 43.6218 9.57695 43.6218C9.70836 43.6218 9.83977 43.5781 9.92738 43.4905C10.0588 43.403 10.1464 43.2718 10.234 43.0968C10.3216 42.9218 10.4092 42.703 10.5406 42.4405C10.672 42.0467 10.8473 41.6966 11.0225 41.4341C11.1977 41.1716 11.4167 40.9966 11.6357 40.8653C11.8548 40.7341 12.03 40.6903 12.3366 40.6903C12.6432 40.6903 12.9061 40.8216 13.1251 40.9966C13.3441 41.1716 13.5193 41.4341 13.6069 41.7404C13.6945 42.0467 13.7383 42.3967 13.7383 42.7905C13.7383 43.053 13.6507 43.3155 13.5631 43.5781C13.4755 43.8406 13.3441 44.0593 13.1689 44.2781C12.9937 44.4969 12.8184 44.6281 12.5994 44.7594C12.3804 44.8907 12.1176 44.9344 11.811 44.8907L11.8548 43.8843C12.03 43.8843 12.2052 43.8843 12.3366 43.8406C12.468 43.7968 12.5556 43.7093 12.6432 43.6218C12.7308 43.5343 12.7746 43.403 12.8622 43.228C12.9061 43.0968 12.9499 42.9218 12.9499 42.7467C12.9499 42.528 12.9499 42.353 12.9061 42.1779C12.8622 42.0467 12.7746 41.9154 12.687 41.8279C12.5556 41.7404 12.4242 41.6967 12.2928 41.6967Z" fill="url(#paint19_linear_12_4637)"/>
<path d="M12.5556 34.7397L11.8548 34.521L12.249 33.3396C12.3804 33.0771 12.3804 32.8146 12.2928 32.5958C12.2052 32.3771 12.0738 32.2458 11.811 32.1583C11.5481 32.0708 11.3291 32.0708 11.1539 32.202C10.9787 32.3333 10.8473 32.5083 10.7597 32.8583L10.453 33.7334L15.0086 35.2648L14.702 36.1836L9.40173 34.3897L10.015 32.5958C10.234 32.027 10.4968 31.5895 10.8473 31.327C11.1977 31.0644 11.5919 31.0207 12.1176 31.1957C12.3366 31.2832 12.5118 31.3707 12.6432 31.5457C12.7746 31.7207 12.8623 31.9395 12.9061 32.1583C12.9499 32.4208 12.9499 32.6833 12.8623 32.9896L12.9937 33.3396L12.5556 34.7397ZM14.8334 35.8773L14.2202 35.1773L14.6144 33.9959C14.702 33.6897 14.702 33.4271 14.6144 33.2521C14.5268 33.0771 14.3516 32.9021 14.1326 32.8146C13.9574 32.7708 13.7821 32.7271 13.6507 32.7708C13.5193 32.8146 13.3879 32.8583 13.2565 32.9459C13.1251 33.0334 13.0375 33.2084 12.9937 33.4271L12.6432 34.4772L11.9424 34.2147L12.3804 32.8583L12.7308 32.7271C12.8184 32.4208 12.9937 32.202 13.1689 32.0708C13.3441 31.9395 13.5631 31.852 13.7821 31.8083C14.0012 31.7645 14.2202 31.8083 14.4392 31.8958C14.9648 32.0708 15.2715 32.3771 15.4467 32.7708C15.6219 33.1646 15.5781 33.6897 15.3591 34.2585L14.8334 35.8773Z" fill="url(#paint20_linear_12_4637)"/>
<path d="M12.2928 27.3017C12.5118 26.9079 12.7309 26.6454 12.9499 26.4266C13.2127 26.2078 13.4755 26.1203 13.7821 26.0766C14.0888 26.0328 14.3954 26.1203 14.702 26.2953C14.9649 26.4266 15.1401 26.6016 15.2715 26.7766C15.4029 26.9517 15.4905 27.1704 15.5343 27.4329C15.5781 27.6517 15.5781 27.9142 15.5343 28.1768V28.5268L14.702 30.1019L14.0012 29.7519L14.6144 28.5705C14.702 28.3518 14.7896 28.1768 14.7896 28.0017C14.7896 27.8267 14.7458 27.6955 14.6582 27.5642C14.5706 27.4329 14.4392 27.3454 14.3078 27.2579C14.045 27.1267 13.826 27.0829 13.5631 27.1704C13.3441 27.2579 13.1251 27.4329 12.9499 27.7392L12.468 28.6143L16.717 30.8457L16.279 31.7208L11.3729 29.0518L12.2928 27.3017ZM15.0087 28.8331L15.4905 27.9142L18.294 27.8705L18.3378 27.9142L17.8559 28.8768L15.0087 28.8331Z" fill="url(#paint21_linear_12_4637)"/>
<path d="M19.1701 22.2263C19.6081 22.5763 19.9586 22.9263 20.1776 23.3201C20.3966 23.7139 20.4842 24.1077 20.4404 24.5452C20.3966 24.939 20.2652 25.3328 19.9586 25.7266C19.6957 26.0766 19.3453 26.3391 18.9511 26.5141C18.5568 26.6454 18.1626 26.6891 17.6807 26.6016C17.2427 26.5141 16.8047 26.2954 16.3228 25.9891L16.1476 25.8141C15.7096 25.464 15.3591 25.114 15.1401 24.7202C14.9211 24.3265 14.8335 23.9327 14.8773 23.4951C14.9211 23.0576 15.0525 22.7076 15.3153 22.3138C15.5781 21.92 15.9286 21.6575 16.3228 21.5262C16.7171 21.395 17.1113 21.3512 17.5493 21.4387C17.9874 21.5262 18.4254 21.745 18.9073 22.095L19.1701 22.2263ZM18.3378 22.8388C17.9874 22.5763 17.6807 22.445 17.4179 22.3575C17.1551 22.27 16.8485 22.27 16.6294 22.3575C16.4104 22.445 16.1914 22.5763 16.0162 22.7951C15.841 23.0138 15.7534 23.2326 15.7534 23.4951C15.7534 23.7577 15.841 23.9764 16.0162 24.2389C16.1914 24.5015 16.4104 24.764 16.7609 24.9828L16.9799 25.1578C17.3303 25.4203 17.6369 25.5516 17.8998 25.6391C18.1626 25.7266 18.4692 25.7266 18.6882 25.6391C18.9073 25.5516 19.1263 25.4203 19.3015 25.2015C19.4767 24.9828 19.5643 24.7202 19.5643 24.5015C19.5643 24.2827 19.4767 24.0202 19.3015 23.7577C19.1263 23.4951 18.8635 23.2764 18.5568 23.0138L18.3378 22.8388Z" fill="url(#paint22_linear_12_4637)"/>
<path d="M21.3165 17.0196L18.1626 20.1699L17.5931 19.6011L20.747 16.4508L21.3165 17.0196ZM23.4629 21.6575L22.762 22.3575L18.8197 18.376L19.5205 17.6759L23.4629 21.6575Z" fill="url(#paint23_linear_12_4637)"/>
<path d="M25.9596 19.4261L25.1712 19.9949L21.8859 15.4445L22.6743 14.8757L25.9596 19.4261ZM26.7043 15.8383L24.2951 17.5447L23.8132 16.8884L26.2225 15.182L26.7043 15.8383ZM28.8069 17.4134L28.0184 17.9822L24.7331 13.4318L25.5216 12.863L28.8069 17.4134Z" fill="url(#paint24_linear_12_4637)"/>
<path d="M30.6029 16.4508L29.7268 16.8883L27.1862 11.9004L28.0622 11.4628L30.6029 16.4508ZM30.7781 10.9816L28.1498 12.3379L27.7994 11.6379L30.4277 10.2815L30.7781 10.9816ZM31.479 13.213L29.2011 14.3943L28.8507 13.6943L31.1285 12.5129L31.479 13.213ZM32.9683 15.2257L30.34 16.582L29.9896 15.882L32.6179 14.5256L32.9683 15.2257Z" fill="url(#paint25_linear_12_4637)"/>
<path d="M33.7129 9.01266C34.1072 8.8814 34.5014 8.83765 34.808 8.83765C35.1585 8.8814 35.4213 8.96891 35.6841 9.18768C35.9031 9.36269 36.0783 9.62521 36.2097 9.97524C36.2974 10.2378 36.3412 10.5003 36.2974 10.7191C36.2536 10.9378 36.1659 11.1566 36.0345 11.3754C35.9031 11.5941 35.7279 11.7691 35.5089 11.9004L35.2899 12.1629L33.6253 12.7317L33.3625 11.9879L34.589 11.5504C34.808 11.4629 34.9832 11.3754 35.0708 11.2441C35.2023 11.1128 35.2461 10.9816 35.2899 10.8066C35.3337 10.6315 35.2899 10.5003 35.2461 10.3253C35.1585 10.0627 34.9832 9.84398 34.808 9.75647C34.589 9.66896 34.3262 9.66896 33.9757 9.75647L33.0121 10.0627L34.5452 14.6131L33.6253 14.9194L31.8293 9.66896L33.7129 9.01266ZM34.589 11.9879L35.5965 11.6379L37.6553 13.563V13.6068L36.6478 13.9568L34.589 11.9879Z" fill="url(#paint26_linear_12_4637)"/>
<path d="M40.853 11.5503C40.8092 11.4191 40.7654 11.2878 40.6778 11.2003C40.5902 11.1128 40.4588 11.0253 40.2836 10.9815C40.1084 10.9378 39.8455 10.894 39.4951 10.8503C39.2323 10.8065 38.9695 10.7628 38.7066 10.719C38.4876 10.6753 38.2686 10.5878 38.0496 10.4565C37.8306 10.3252 37.6991 10.2377 37.5677 10.0627C37.4363 9.88771 37.3487 9.71269 37.3049 9.49392C37.2611 9.18765 37.3049 8.92513 37.3925 8.6626C37.5239 8.40008 37.6991 8.18132 38.0058 8.0063C38.2686 7.83129 38.619 7.70003 39.0133 7.61252C39.4075 7.52501 39.8017 7.56876 40.1084 7.65627C40.415 7.74378 40.6778 7.91879 40.8968 8.13756C41.1159 8.35633 41.2473 8.61885 41.2911 8.92513L40.415 9.05639C40.3712 8.88137 40.3274 8.75011 40.2398 8.61885C40.1522 8.48759 40.0208 8.40008 39.8455 8.35633C39.6703 8.31258 39.4951 8.31258 39.2323 8.35633C39.0133 8.40008 38.838 8.44384 38.7066 8.5751C38.5752 8.6626 38.4876 8.79387 38.4438 8.88137C38.4 8.96888 38.4 9.14389 38.4 9.27515C38.4438 9.40642 38.4876 9.53768 38.5752 9.62518C38.6628 9.71269 38.838 9.8002 39.0133 9.84395C39.1885 9.88771 39.4513 9.93146 39.7141 9.97521C40.1522 10.019 40.5026 10.1065 40.8092 10.194C41.1159 10.2815 41.3349 10.4565 41.5101 10.6315C41.6853 10.8065 41.8167 11.0691 41.8605 11.3753C41.9043 11.6816 41.9043 11.9879 41.7729 12.2066C41.6415 12.4692 41.4663 12.6879 41.2035 12.8629C40.9406 13.038 40.5902 13.1692 40.196 13.213C39.9331 13.2567 39.6703 13.2567 39.4075 13.2567C39.1447 13.213 38.8818 13.1692 38.6628 13.038C38.4438 12.9505 38.2248 12.7754 38.0496 12.6004C37.8744 12.4254 37.7867 12.1629 37.6991 11.8566L38.6628 11.6816C38.7066 11.8566 38.7504 11.9879 38.838 12.1191C38.9257 12.2504 39.0133 12.3379 39.1447 12.3817C39.2761 12.4254 39.4075 12.4692 39.5389 12.4692C39.6703 12.4692 39.8455 12.4692 40.0208 12.4254C40.2398 12.3817 40.415 12.3379 40.5464 12.2504C40.6778 12.1629 40.7654 12.0754 40.853 11.9441C40.853 11.8129 40.853 11.6816 40.853 11.5503Z" fill="url(#paint27_linear_12_4637)"/>
<path d="M49.0882 12.0317C49.0005 12.1192 48.8691 12.2504 48.6939 12.3379C48.5187 12.4692 48.2997 12.5567 48.0369 12.6442C47.774 12.7317 47.4236 12.7755 46.9856 12.7317C46.5037 12.7317 46.1095 12.6005 45.759 12.3817C45.4086 12.1629 45.1458 11.8566 44.9268 11.4191C44.7516 11.0253 44.6639 10.544 44.6639 9.97524V9.58146C44.6639 9.01267 44.7954 8.53138 45.0144 8.13759C45.2334 7.74381 45.4962 7.43754 45.8467 7.26252C46.2409 7.08751 46.6351 7 47.117 7C47.5988 7 47.9492 7.08751 48.2559 7.26252C48.5625 7.43754 48.7815 7.6563 48.9567 7.91883C49.132 8.18135 49.2196 8.48762 49.2196 8.8814L48.2559 8.83765C48.2559 8.66264 48.1683 8.48762 48.0807 8.31261C47.993 8.18135 47.8616 8.05009 47.7302 7.96258C47.555 7.87507 47.3798 7.83132 47.117 7.83132C46.8103 7.83132 46.5913 7.87507 46.3723 8.00633C46.1533 8.13759 46.0219 8.35636 45.8905 8.61888C45.8028 8.8814 45.7152 9.23143 45.7152 9.62522V10.019C45.7152 10.4128 45.759 10.7628 45.8467 11.0691C45.9343 11.3754 46.1095 11.5941 46.3285 11.7254C46.5475 11.9004 46.8103 11.9442 47.0732 11.9879C47.2922 11.9879 47.4674 11.9879 47.5988 11.9442C47.7302 11.9004 47.8616 11.8566 47.9492 11.8129C48.0369 11.7691 48.0807 11.7254 48.1245 11.6816L48.1683 10.5878L47.0294 10.544L47.0732 9.80023L49.1758 9.88774L49.0882 12.0317Z" fill="url(#paint28_linear_12_4637)"/>
<path d="M54.9141 11.1128C54.7827 11.6816 54.6074 12.1192 54.3446 12.4692C54.0818 12.8192 53.7314 13.0818 53.3809 13.213C52.9867 13.3443 52.5925 13.388 52.1106 13.3005C51.6726 13.213 51.2783 13.038 50.9717 12.7317C50.6651 12.4255 50.4461 12.0754 50.3584 11.6379C50.227 11.2004 50.227 10.7191 50.3584 10.1503L50.4023 9.88775C50.5337 9.31895 50.7089 8.88141 50.9717 8.53139C51.2345 8.18136 51.585 7.91884 51.9792 7.78757C52.3734 7.65631 52.7677 7.61256 53.2495 7.70007C53.6876 7.78757 54.0818 7.96259 54.3884 8.26886C54.695 8.53139 54.9141 8.92517 55.0017 9.3627C55.1331 9.80024 55.1331 10.2815 55.0017 10.8503L54.9141 11.1128ZM53.9942 10.6316C54.0818 10.2378 54.0818 9.88775 54.038 9.58147C53.9942 9.2752 53.8628 9.05643 53.7314 8.88141C53.5999 8.7064 53.3371 8.57514 53.0743 8.53139C52.8115 8.48763 52.5486 8.48763 52.3296 8.61889C52.1106 8.7064 51.9354 8.88141 51.7602 9.14394C51.585 9.40646 51.4974 9.71273 51.4097 10.1503L51.3659 10.4565C51.2783 10.8503 51.2783 11.2004 51.3221 11.5066C51.3659 11.8129 51.4974 12.0317 51.6288 12.2504C51.7602 12.4692 52.023 12.5567 52.2858 12.6005C52.5486 12.6442 52.8115 12.6442 53.0305 12.513C53.2495 12.4255 53.4247 12.2067 53.5999 11.9879C53.7752 11.7254 53.8628 11.3754 53.9504 10.9816L53.9942 10.6316Z" fill="url(#paint29_linear_12_4637)"/>
<path d="M56.1406 14.3506L55.2207 14.0006L57.1043 8.75012L58.0242 9.10015L56.1406 14.3506ZM58.5498 15.2257L55.9216 14.2631L56.1844 13.5193L58.8126 14.4818L58.5498 15.2257Z" fill="url(#paint30_linear_12_4637)"/>
<path d="M59.9953 15.9257L59.1193 15.4444L61.7475 10.5002L62.6236 10.9815L59.9953 15.9257ZM59.5135 15.6632L59.9077 14.9631L60.959 15.5319C61.2657 15.7069 61.5723 15.7507 61.8351 15.7507C62.0979 15.7069 62.3608 15.6194 62.5798 15.4444C62.7988 15.2694 63.0178 15.0069 63.193 14.6568L63.3245 14.3943C63.4997 14.0443 63.6311 13.738 63.6311 13.4317C63.6749 13.1255 63.5873 12.8629 63.4559 12.6442C63.3245 12.4254 63.1054 12.2066 62.7988 12.0754L61.7037 11.5066L62.0979 10.8065L63.193 11.3753C63.6311 11.5941 63.9815 11.9004 64.2005 12.2941C64.4196 12.6879 64.551 13.0817 64.551 13.5192C64.551 13.9568 64.4196 14.4381 64.1567 14.9194L64.0253 15.1819C63.7625 15.6632 63.4559 16.0132 63.0616 16.2757C62.6674 16.5382 62.2732 16.6695 61.8351 16.6695C61.3971 16.6695 60.959 16.582 60.4772 16.3195L59.5135 15.6632Z" fill="url(#paint31_linear_12_4637)"/>
<path d="M70.4207 25.7266L70.0265 25.2453L75.2392 21.1324L75.6334 21.6137L70.4207 25.7266Z" fill="url(#paint32_linear_12_4637)"/>
<defs>
<linearGradient id="paint0_linear_12_4637" x1="45.5" y1="2" x2="81.5" y2="89" gradientUnits="userSpaceOnUse">
<stop stop-color="#FFD085"/>
<stop offset="1" stop-color="#FFBC44"/>
</linearGradient>
<linearGradient id="paint1_linear_12_4637" x1="78.7054" y1="34.9767" x2="79.6609" y2="39.2763" gradientUnits="userSpaceOnUse">
<stop stop-color="#917543"/>
<stop offset="1" stop-color="#573F14"/>
</linearGradient>
<linearGradient id="paint2_linear_12_4637" x1="79.2273" y1="41.1848" x2="80.093" y2="45.1842" gradientUnits="userSpaceOnUse">
<stop stop-color="#917543"/>
<stop offset="1" stop-color="#573F14"/>
</linearGradient>
<linearGradient id="paint3_linear_12_4637" x1="79.2804" y1="46.0687" x2="80.1197" y2="49.9631" gradientUnits="userSpaceOnUse">
<stop stop-color="#917543"/>
<stop offset="1" stop-color="#573F14"/>
</linearGradient>
<linearGradient id="paint4_linear_12_4637" x1="77.3783" y1="54.7946" x2="78.4361" y2="59.336" gradientUnits="userSpaceOnUse">
<stop stop-color="#917543"/>
<stop offset="1" stop-color="#573F14"/>
</linearGradient>
<linearGradient id="paint5_linear_12_4637" x1="74.7263" y1="59.3317" x2="75.8704" y2="64.3553" gradientUnits="userSpaceOnUse">
<stop stop-color="#917543"/>
<stop offset="1" stop-color="#573F14"/>
</linearGradient>
<linearGradient id="paint6_linear_12_4637" x1="72.1549" y1="64.2199" x2="73.3804" y2="68.8147" gradientUnits="userSpaceOnUse">
<stop stop-color="#917543"/>
<stop offset="1" stop-color="#573F14"/>
</linearGradient>
<linearGradient id="paint7_linear_12_4637" x1="69.1759" y1="68.5127" x2="70.6308" y2="73.6269" gradientUnits="userSpaceOnUse">
<stop stop-color="#917543"/>
<stop offset="1" stop-color="#573F14"/>
</linearGradient>
<linearGradient id="paint8_linear_12_4637" x1="64.0042" y1="70.9956" x2="65.7817" y2="77.1039" gradientUnits="userSpaceOnUse">
<stop stop-color="#917543"/>
<stop offset="1" stop-color="#573F14"/>
</linearGradient>
<linearGradient id="paint9_linear_12_4637" x1="59.4725" y1="73.9417" x2="61.2571" y2="79.5073" gradientUnits="userSpaceOnUse">
<stop stop-color="#917543"/>
<stop offset="1" stop-color="#573F14"/>
</linearGradient>
<linearGradient id="paint10_linear_12_4637" x1="54.7304" y1="75.6333" x2="56.323" y2="80.8982" gradientUnits="userSpaceOnUse">
<stop stop-color="#917543"/>
<stop offset="1" stop-color="#573F14"/>
</linearGradient>
<linearGradient id="paint11_linear_12_4637" x1="50.1895" y1="77.2429" x2="51.8732" y2="81.9603" gradientUnits="userSpaceOnUse">
<stop stop-color="#917543"/>
<stop offset="1" stop-color="#573F14"/>
</linearGradient>
<linearGradient id="paint12_linear_12_4637" x1="42.8525" y1="77.5951" x2="44.5793" y2="82.3778" gradientUnits="userSpaceOnUse">
<stop stop-color="#917543"/>
<stop offset="1" stop-color="#573F14"/>
</linearGradient>
<linearGradient id="paint13_linear_12_4637" x1="37.0507" y1="76.8451" x2="38.6327" y2="81.6318" gradientUnits="userSpaceOnUse">
<stop stop-color="#917543"/>
<stop offset="1" stop-color="#573F14"/>
</linearGradient>
<linearGradient id="paint14_linear_12_4637" x1="33.0629" y1="75.0173" x2="35.4862" y2="79.8073" gradientUnits="userSpaceOnUse">
<stop stop-color="#917543"/>
<stop offset="1" stop-color="#573F14"/>
</linearGradient>
<linearGradient id="paint15_linear_12_4637" x1="27.7071" y1="73.6318" x2="29.2174" y2="78.7108" gradientUnits="userSpaceOnUse">
<stop stop-color="#917543"/>
<stop offset="1" stop-color="#573F14"/>
</linearGradient>
<linearGradient id="paint16_linear_12_4637" x1="16.96" y1="63.9805" x2="17.8461" y2="67.9704" gradientUnits="userSpaceOnUse">
<stop stop-color="#917543"/>
<stop offset="1" stop-color="#573F14"/>
</linearGradient>
<linearGradient id="paint17_linear_12_4637" x1="10.0644" y1="51.9033" x2="11.0036" y2="56.1677" gradientUnits="userSpaceOnUse">
<stop stop-color="#917543"/>
<stop offset="1" stop-color="#573F14"/>
</linearGradient>
<linearGradient id="paint18_linear_12_4637" x1="9.61511" y1="45.8908" x2="10.5499" y2="50.0289" gradientUnits="userSpaceOnUse">
<stop stop-color="#917543"/>
<stop offset="1" stop-color="#573F14"/>
</linearGradient>
<linearGradient id="paint19_linear_12_4637" x1="9.48087" y1="41.1908" x2="10.2909" y2="45.0291" gradientUnits="userSpaceOnUse">
<stop stop-color="#917543"/>
<stop offset="1" stop-color="#573F14"/>
</linearGradient>
<linearGradient id="paint20_linear_12_4637" x1="10.9896" y1="31.798" x2="12.0324" y2="36.2872" gradientUnits="userSpaceOnUse">
<stop stop-color="#917543"/>
<stop offset="1" stop-color="#573F14"/>
</linearGradient>
<linearGradient id="paint21_linear_12_4637" x1="13.1703" y1="26.8508" x2="14.3084" y2="31.8454" gradientUnits="userSpaceOnUse">
<stop stop-color="#917543"/>
<stop offset="1" stop-color="#573F14"/>
</linearGradient>
<linearGradient id="paint22_linear_12_4637" x1="16.3076" y1="22.1228" x2="17.5122" y2="26.6859" gradientUnits="userSpaceOnUse">
<stop stop-color="#917543"/>
<stop offset="1" stop-color="#573F14"/>
</linearGradient>
<linearGradient id="paint23_linear_12_4637" x1="19.1079" y1="17.2711" x2="20.5431" y2="22.3533" gradientUnits="userSpaceOnUse">
<stop stop-color="#917543"/>
<stop offset="1" stop-color="#573F14"/>
</linearGradient>
<linearGradient id="paint24_linear_12_4637" x1="23.672" y1="13.8535" x2="25.44" y2="19.9678" gradientUnits="userSpaceOnUse">
<stop stop-color="#917543"/>
<stop offset="1" stop-color="#573F14"/>
</linearGradient>
<linearGradient id="paint25_linear_12_4637" x1="28.6783" y1="11.199" x2="30.4629" y2="16.7646" gradientUnits="userSpaceOnUse">
<stop stop-color="#917543"/>
<stop offset="1" stop-color="#573F14"/>
</linearGradient>
<linearGradient id="paint26_linear_12_4637" x1="33.3328" y1="9.68226" x2="34.8572" y2="14.8858" gradientUnits="userSpaceOnUse">
<stop stop-color="#917543"/>
<stop offset="1" stop-color="#573F14"/>
</linearGradient>
<linearGradient id="paint27_linear_12_4637" x1="38.4746" y1="8.3553" x2="40.1134" y2="13.074" gradientUnits="userSpaceOnUse">
<stop stop-color="#917543"/>
<stop offset="1" stop-color="#573F14"/>
</linearGradient>
<linearGradient id="paint28_linear_12_4637" x1="45.8396" y1="7.79839" x2="47.5202" y2="12.5441" gradientUnits="userSpaceOnUse">
<stop stop-color="#917543"/>
<stop offset="1" stop-color="#573F14"/>
</linearGradient>
<linearGradient id="paint29_linear_12_4637" x1="51.509" y1="8.44496" x2="53.0824" y2="13.2133" gradientUnits="userSpaceOnUse">
<stop stop-color="#917543"/>
<stop offset="1" stop-color="#573F14"/>
</linearGradient>
<linearGradient id="paint30_linear_12_4637" x1="56.1477" y1="9.64943" x2="58.5709" y2="14.4394" gradientUnits="userSpaceOnUse">
<stop stop-color="#917543"/>
<stop offset="1" stop-color="#573F14"/>
</linearGradient>
<linearGradient id="paint31_linear_12_4637" x1="60.521" y1="11.357" x2="62.1793" y2="16.5598" gradientUnits="userSpaceOnUse">
<stop stop-color="#917543"/>
<stop offset="1" stop-color="#573F14"/>
</linearGradient>
<linearGradient id="paint32_linear_12_4637" x1="71.4734" y1="21.7705" x2="72.4055" y2="25.8242" gradientUnits="userSpaceOnUse">
<stop stop-color="#917543"/>
<stop offset="1" stop-color="#573F14"/>
</linearGradient>
</defs>
</svg>
